<?xml version="1.0" encoding="UTF-8" standalone="no"?>
<svg
   xmlns:dc="http://purl.org/dc/elements/1.1/"
   xmlns:cc="http://creativecommons.org/ns#"
   xmlns:rdf="http://www.w3.org/1999/02/22-rdf-syntax-ns#"
   xmlns:svg="http://www.w3.org/2000/svg"
   xmlns="http://www.w3.org/2000/svg"
   xmlns:xlink="http://www.w3.org/1999/xlink"
   version="1.1"
   id="svg2"
   height="101.15923"
   width="99.950157">
  <defs
     id="defs4" />
  <metadata
     id="metadata7">
    <rdf:RDF>
      <cc:Work
         rdf:about="">
        <dc:format>image/svg+xml</dc:format>
        <dc:type
           rdf:resource="http://purl.org/dc/dcmitype/StillImage" />
        <dc:title></dc:title>
      </cc:Work>
    </rdf:RDF>
  </metadata>
  <g
     transform="translate(-61.853324,-59.775664)"
     id="layer5">
    <g
       id="g3302">
      <path
         id="text3314"
         d=""
         style="font-style:normal;font-variant:normal;font-weight:normal;font-stretch:normal;font-size:110.60848999px;line-height:100%;font-family:'Domestic Manners';text-align:start;writing-mode:lr-tb;text-anchor:start;opacity:0.09090899;fill:#fffc00;fill-opacity:1;stroke:none;stroke-width:1.06666636px;stroke-linecap:butt;stroke-linejoin:miter;stroke-opacity:1" />
    </g>
  </g>
  <g
     transform="translate(-61.853324,-59.775664)"
     style="display:none"
     id="layer2">
    <image
       y="-27.427795"
       x="-130.28522"
       id="image2002"
       height="1136"
       width="1136"
       xlink:href="file:///home/rusconi/devel/msxpertsuite/development/images/massxpert-icon-original.png" />
  </g>
  <g
     transform="translate(-61.853324,-59.775664)"
     style="display:inline"
     id="layer3" />
  <g
     transform="translate(-61.853324,-59.775664)"
     style="display:inline"
     id="layer1" />
  <g
     transform="translate(-61.853324,-59.775664)"
     id="layer4">
    <g
       transform="translate(-340.03843,-451.37845)"
       id="g928">
      <rect
         style="display:inline;opacity:1;fill:#0000ff;fill-opacity:1;stroke:none;stroke-width:0.07301776;stroke-opacity:1"
         id="rect3006"
         width="99.950165"
         height="101.15923"
         x="401.89175"
         y="511.15411"
         ry="49.975082" />
      <text
         xml:space="preserve"
         style="font-style:normal;font-variant:normal;font-weight:normal;font-stretch:normal;font-size:9.45401573px;line-height:5.90875959px;font-family:'EB Garamond SC';-inkscape-font-specification:'EB Garamond SC, Normal';font-variant-ligatures:normal;font-variant-caps:normal;font-variant-numeric:normal;font-feature-settings:normal;text-align:start;letter-spacing:0px;word-spacing:0px;writing-mode:lr-tb;text-anchor:start;fill:#dfdc4b;fill-opacity:1;stroke:none;stroke-width:0.2363504px;stroke-linecap:butt;stroke-linejoin:miter;stroke-opacity:1"
         x="423.69409"
         y="601.34595"
         id="text846"><tspan
           id="tspan844"
           x="423.69409"
           y="601.34595"
           style="fill:#dfdc4b;fill-opacity:1;stroke-width:0.2363504px">msXpertSuite</tspan></text>
      <g
         id="g888"
         transform="matrix(0.06845414,0,0,0.06845414,420.93466,518.95491)">
        <path
           d="m 447.12201,49.407809 c 67.95244,-83.280596 150.84533,-84.268746 213.52076,-15.25773 77.17906,84.980751 53.81483,293.353731 111.17876,319.983711 177.52988,82.41449 218.70888,177.43908 234.74267,280.99307 46.0334,364.66692 -324.38154,460.26834 -561.14063,460.26834 -236.75909,0 -607.17409,-95.60142 -561.14062,-460.26834 16.033786,-103.55399 57.212769,-198.57858 234.74266,-280.99307 57.36393,-26.62998 33.99969,-235.00296 111.17875,-319.983711 62.67544,-69.011016 145.56832,-68.022866 213.52077,15.25773"
           style="display:inline;fill:#00b500;fill-opacity:1;stroke:none;stroke-width:1.06666672;stroke-opacity:1"
           id="path2952" />
        <g
           id="g2980"
           style="display:inline">
          <path
             style="fill:#ffffff;fill-opacity:1;stroke-width:1.06666672"
             id="path2904"
             d="M 403.42228,173.40602 A 84.658302,143.91913 0 0 1 318.80609,317.32513 84.658302,143.91913 0 0 1 234.10572,173.54922 84.658302,143.91913 0 0 1 318.63762,29.487053 84.658302,143.91913 0 0 1 403.42211,173.11962" />
          <g
             id="g2976"
             transform="translate(206.79893,97.879947)">
            <ellipse
               ry="64.277603"
               rx="51.108532"
               cy="32.556831"
               cx="112.38741"
               id="path2005"
               style="fill:#000000;fill-opacity:1;stroke-width:1.06666672" />
            <ellipse
               ry="22.575548"
               rx="16.931662"
               cy="11.549032"
               cx="132.14104"
               id="path2892"
               style="fill:#ffffff;fill-opacity:1;stroke-width:1.06666672" />
          </g>
        </g>
        <g
           id="g2992"
           style="display:inline">
          <path
             d="M 654.6909,180.9312 A 84.658302,143.91913 0 0 1 570.07471,324.85031 84.658302,143.91913 0 0 1 485.37433,181.0744 84.658302,143.91913 0 0 1 569.90624,37.01223 84.658302,143.91913 0 0 1 654.69073,180.6448"
             id="path2908"
             style="fill:#ffffff;fill-opacity:1;stroke-width:1.06666672" />
          <g
             id="g2988"
             transform="translate(584.33589,-60.347029)"
             style="opacity:1">
            <ellipse
               ry="64.277603"
               rx="51.108532"
               cy="199.26263"
               cx="-26.096436"
               style="fill:#000000;fill-opacity:1;stroke-width:1.06666672"
               id="path2900" />
            <ellipse
               ry="22.575548"
               rx="16.931662"
               cy="178.25484"
               cx="-6.3428092"
               style="fill:#ffffff;fill-opacity:1;stroke-width:1.06666672"
               id="path2902" />
          </g>
        </g>
        <path
           id="path2933"
           d="m 345.57225,720.95423 c 22.21675,-26.34477 151.71955,-25.81509 172.6704,0.70623 20.95084,26.52132 -45.2756,107.25091 -88.4432,107.07436 -43.1676,-0.17656 -106.44396,-81.43582 -84.2272,-107.78059 z"
           style="display:inline;fill:#cc0000;fill-opacity:1;fill-rule:evenodd;stroke:none;stroke-width:1.06666672px;stroke-linecap:butt;stroke-linejoin:miter;stroke-opacity:1" />
        <path
           d="m 101.55964,576.4526 c 0,0 139.09255,59.27075 331.17275,0 180.00666,65.92867 344.41965,1.64641 344.41965,1.64641 0,0 -58.13921,155.17414 -141.30037,254.37033 -83.16115,99.19621 -198.70365,160.52497 -198.70365,160.52497 0,0 -120.69407,-53.09672 -198.70365,-160.52497 C 159.71231,724.04615 101.55964,576.4526 101.55964,576.4526 Z m 70.54194,41.03917 c 0,0 110.04588,47.59162 262.01399,0 142.41589,52.93762 272.49453,1.32199 272.49453,1.32199 0,0 -45.998,124.59754 -111.79263,204.24739 -65.79462,79.64988 -157.20839,128.894 -157.20839,128.894 0,0 -95.48954,-42.63417 -157.20839,-128.894 C 218.11024,736.00243 172.10158,617.49177 172.10158,617.49177 Z"
           style="fill:#004a00;fill-opacity:0.59459462;fill-rule:evenodd;stroke:none;stroke-width:1.06666672px;stroke-linecap:butt;stroke-linejoin:miter;stroke-opacity:1"
           id="path2999" />
      </g>
    </g>
  </g>
</svg>
