<?xml version="1.0" encoding="UTF-8" standalone="no"?>
<!-- Created with Inkscape (http://www.inkscape.org/) -->

<svg
   xmlns:dc="http://purl.org/dc/elements/1.1/"
   xmlns:cc="http://creativecommons.org/ns#"
   xmlns:rdf="http://www.w3.org/1999/02/22-rdf-syntax-ns#"
   xmlns:svg="http://www.w3.org/2000/svg"
   xmlns="http://www.w3.org/2000/svg"
   xmlns:sodipodi="http://sodipodi.sourceforge.net/DTD/sodipodi-0.dtd"
   xmlns:inkscape="http://www.inkscape.org/namespaces/inkscape"
   version="1.1"
   id="svg2"
   width="460.79999"
   height="118.4"
   viewBox="0 0 460.79999 118.4"
   sodipodi:docname="icons.svg"
   inkscape:version="0.92.3 (2405546, 2018-03-11)"
   inkscape:export-filename="/home/rusconi/devel/docbook/msxpertsuite/minexpert/xslt/static/images/icons.png"
   inkscape:export-xdpi="96.372025"
   inkscape:export-ydpi="96.372025">
  <metadata
     id="metadata8">
    <rdf:RDF>
      <cc:Work
         rdf:about="">
        <dc:format>image/svg+xml</dc:format>
        <dc:type
           rdf:resource="http://purl.org/dc/dcmitype/StillImage" />
        <dc:title></dc:title>
      </cc:Work>
    </rdf:RDF>
  </metadata>
  <defs
     id="defs6" />
  <sodipodi:namedview
     pagecolor="#ffffff"
     bordercolor="#666666"
     borderopacity="1"
     objecttolerance="10"
     gridtolerance="10"
     guidetolerance="10"
     inkscape:pageopacity="0"
     inkscape:pageshadow="2"
     inkscape:window-width="640"
     inkscape:window-height="480"
     id="namedview4"
     showgrid="false"
     inkscape:zoom="2.1900074"
     inkscape:cx="309.46271"
     inkscape:cy="110.84165"
     inkscape:current-layer="svg2" />
  <g
     id="g968"
     transform="translate(-12.73736,1.2285807)"
     inkscape:export-xdpi="89.893227"
     inkscape:export-ydpi="89.893227">
    <circle
       r="19.038742"
       cy="56.733231"
       cx="31.969606"
       id="path12"
       style="opacity:1;fill:#913f00;fill-opacity:1;stroke:none;stroke-width:1.96482337;stroke-miterlimit:4;stroke-dasharray:none;stroke-dashoffset:0;stroke-opacity:1" />
    <g
       transform="matrix(1.0496535,0,0,1.0496535,65.533719,-5.735322)"
       id="g925">
      <g
         id="g910">
        <path
           sodipodi:nodetypes="ccccc"
           inkscape:connector-curvature="0"
           id="path879"
           d="m -31.368942,53.26836 h -1.018156 v 17.561894 h 0.973583 z"
           style="fill:#dce48d;fill-opacity:1;fill-rule:evenodd;stroke:#000000;stroke-width:0.30000001;stroke-linecap:butt;stroke-linejoin:miter;stroke-miterlimit:4;stroke-dasharray:none;stroke-opacity:1" />
        <g
           id="g891">
          <path
             style="fill:#dce48d;fill-opacity:1;fill-rule:evenodd;stroke:#000000;stroke-width:0.35457075;stroke-linecap:butt;stroke-linejoin:miter;stroke-miterlimit:4;stroke-dasharray:none;stroke-opacity:1"
             d="m -20.403426,50.457515 v 18.697037 c -4.172979,-0.367299 -11.127555,1.99962 -11.147469,1.652291 -0.07879,-1.374211 0,-17.57845 0,-17.57845 2.149259,-1.967899 7.58153,-1.983546 11.147469,-2.770878 z"
             id="path886"
             inkscape:connector-curvature="0"
             sodipodi:nodetypes="ccscc" />
          <path
             sodipodi:nodetypes="ccscc"
             inkscape:connector-curvature="0"
             id="path884"
             d="m -21.586121,49.183845 v 18.697037 c -3.718097,0.269536 -9.94486,3.27329 -9.964774,2.925961 -0.07879,-1.374211 0,-17.57845 0,-17.57845 2.149259,-1.967899 6.398835,-3.257216 9.964774,-4.044548 z"
             style="fill:#dce48d;fill-opacity:1;fill-rule:evenodd;stroke:#000000;stroke-width:0.35457075;stroke-linecap:butt;stroke-linejoin:miter;stroke-miterlimit:4;stroke-dasharray:none;stroke-opacity:1" />
          <path
             style="fill:#dce48d;fill-opacity:1;fill-rule:evenodd;stroke:#000000;stroke-width:0.35457075;stroke-linecap:butt;stroke-linejoin:miter;stroke-miterlimit:4;stroke-dasharray:none;stroke-opacity:1"
             d="m -22.950768,48.228592 v 18.697037 c -3.718097,0.587954 -8.580213,4.228543 -8.600127,3.881214 -0.07879,-1.374211 0,-17.57845 0,-17.57845 2.149259,-1.967899 5.034188,-4.212469 8.600127,-4.999801 z"
             id="path859"
             inkscape:connector-curvature="0"
             sodipodi:nodetypes="ccscc" />
        </g>
        <g
           transform="matrix(-1,0,0,1,-63.952749,0)"
           id="g899">
          <path
             sodipodi:nodetypes="ccscc"
             inkscape:connector-curvature="0"
             id="path893"
             d="m -20.403426,50.457515 v 18.697037 c -4.172979,-0.367299 -11.127555,1.99962 -11.147469,1.652291 -0.07879,-1.374211 0,-17.57845 0,-17.57845 2.149259,-1.967899 7.58153,-1.983546 11.147469,-2.770878 z"
             style="fill:#dce48d;fill-opacity:1;fill-rule:evenodd;stroke:#000000;stroke-width:0.35457075;stroke-linecap:butt;stroke-linejoin:miter;stroke-miterlimit:4;stroke-dasharray:none;stroke-opacity:1" />
          <path
             style="fill:#dce48d;fill-opacity:1;fill-rule:evenodd;stroke:#000000;stroke-width:0.35457075;stroke-linecap:butt;stroke-linejoin:miter;stroke-miterlimit:4;stroke-dasharray:none;stroke-opacity:1"
             d="m -21.586121,49.183845 v 18.697037 c -3.718097,0.269536 -9.94486,3.27329 -9.964774,2.925961 -0.07879,-1.374211 0,-17.57845 0,-17.57845 2.149259,-1.967899 6.398835,-3.257216 9.964774,-4.044548 z"
             id="path895"
             inkscape:connector-curvature="0"
             sodipodi:nodetypes="ccscc" />
          <path
             sodipodi:nodetypes="ccscc"
             inkscape:connector-curvature="0"
             id="path897"
             d="m -22.950768,48.228592 v 18.697037 c -3.718097,0.587954 -8.580213,4.228543 -8.600127,3.881214 -0.07879,-1.374211 0,-17.57845 0,-17.57845 2.149259,-1.967899 5.034188,-4.212469 8.600127,-4.999801 z"
             style="fill:#dce48d;fill-opacity:1;fill-rule:evenodd;stroke:#000000;stroke-width:0.35457075;stroke-linecap:butt;stroke-linejoin:miter;stroke-miterlimit:4;stroke-dasharray:none;stroke-opacity:1" />
        </g>
      </g>
      <path
         style="fill:#865b3a;fill-opacity:1;fill-rule:evenodd;stroke:#000000;stroke-width:0.2;stroke-linecap:butt;stroke-linejoin:miter;stroke-miterlimit:4;stroke-dasharray:none;stroke-opacity:1"
         d="m -28.819886,50.982054 v 7.526622 l 0.997117,-0.997117 0.900621,1.286603 v -8.90972 z"
         id="path912"
         inkscape:connector-curvature="0"
         sodipodi:nodetypes="cccccc" />
    </g>
  </g>
  <g
     transform="translate(-12.82301,-37.154799)"
     id="g996"
     inkscape:export-xdpi="89.893227"
     inkscape:export-ydpi="89.893227">
    <circle
       style="opacity:1;fill:#666666;fill-opacity:1;stroke:none;stroke-width:1.96482337;stroke-miterlimit:4;stroke-dasharray:none;stroke-dashoffset:0;stroke-opacity:1"
       id="circle970"
       cx="31.969606"
       cy="56.733231"
       r="19.038742" />
    <g
       id="g994"
       transform="matrix(1.0496535,0,0,1.0496535,65.533719,-5.735322)">
      <g
         id="g990">
        <path
           style="fill:#ffffff;fill-opacity:1;fill-rule:evenodd;stroke:#000000;stroke-width:0.30000001;stroke-linecap:butt;stroke-linejoin:miter;stroke-miterlimit:4;stroke-dasharray:none;stroke-opacity:1"
           d="m -31.368942,53.26836 h -1.018156 v 17.561894 h 0.973583 z"
           id="path972"
           inkscape:connector-curvature="0"
           sodipodi:nodetypes="ccccc" />
        <g
           id="g980">
          <path
             sodipodi:nodetypes="ccscc"
             inkscape:connector-curvature="0"
             id="path974"
             d="m -20.403426,50.457515 v 18.697037 c -4.172979,-0.367299 -11.127555,1.99962 -11.147469,1.652291 -0.07879,-1.374211 0,-17.57845 0,-17.57845 2.149259,-1.967899 7.58153,-1.983546 11.147469,-2.770878 z"
             style="fill:#ffffff;fill-opacity:1;fill-rule:evenodd;stroke:#000000;stroke-width:0.35457075;stroke-linecap:butt;stroke-linejoin:miter;stroke-miterlimit:4;stroke-dasharray:none;stroke-opacity:1" />
          <path
             style="fill:#ffffff;fill-opacity:1;fill-rule:evenodd;stroke:#000000;stroke-width:0.35457075;stroke-linecap:butt;stroke-linejoin:miter;stroke-miterlimit:4;stroke-dasharray:none;stroke-opacity:1"
             d="m -21.586121,49.183845 v 18.697037 c -3.718097,0.269536 -9.94486,3.27329 -9.964774,2.925961 -0.07879,-1.374211 0,-17.57845 0,-17.57845 2.149259,-1.967899 6.398835,-3.257216 9.964774,-4.044548 z"
             id="path976"
             inkscape:connector-curvature="0"
             sodipodi:nodetypes="ccscc" />
          <path
             sodipodi:nodetypes="ccscc"
             inkscape:connector-curvature="0"
             id="path978"
             d="m -22.950768,48.228592 v 18.697037 c -3.718097,0.587954 -8.580213,4.228543 -8.600127,3.881214 -0.07879,-1.374211 0,-17.57845 0,-17.57845 2.149259,-1.967899 5.034188,-4.212469 8.600127,-4.999801 z"
             style="fill:#ffffff;fill-opacity:1;fill-rule:evenodd;stroke:#000000;stroke-width:0.35457075;stroke-linecap:butt;stroke-linejoin:miter;stroke-miterlimit:4;stroke-dasharray:none;stroke-opacity:1" />
        </g>
        <g
           id="g988"
           transform="matrix(-1,0,0,1,-63.952749,0)">
          <path
             style="fill:#ffffff;fill-opacity:1;fill-rule:evenodd;stroke:#000000;stroke-width:0.35457075;stroke-linecap:butt;stroke-linejoin:miter;stroke-miterlimit:4;stroke-dasharray:none;stroke-opacity:1"
             d="m -20.403426,50.457515 v 18.697037 c -4.172979,-0.367299 -11.127555,1.99962 -11.147469,1.652291 -0.07879,-1.374211 0,-17.57845 0,-17.57845 2.149259,-1.967899 7.58153,-1.983546 11.147469,-2.770878 z"
             id="path982"
             inkscape:connector-curvature="0"
             sodipodi:nodetypes="ccscc" />
          <path
             sodipodi:nodetypes="ccscc"
             inkscape:connector-curvature="0"
             id="path984"
             d="m -21.586121,49.183845 v 18.697037 c -3.718097,0.269536 -9.94486,3.27329 -9.964774,2.925961 -0.07879,-1.374211 0,-17.57845 0,-17.57845 2.149259,-1.967899 6.398835,-3.257216 9.964774,-4.044548 z"
             style="fill:#ffffff;fill-opacity:1;fill-rule:evenodd;stroke:#000000;stroke-width:0.35457075;stroke-linecap:butt;stroke-linejoin:miter;stroke-miterlimit:4;stroke-dasharray:none;stroke-opacity:1" />
          <path
             style="fill:#ffffff;fill-opacity:1;fill-rule:evenodd;stroke:#000000;stroke-width:0.35457075;stroke-linecap:butt;stroke-linejoin:miter;stroke-miterlimit:4;stroke-dasharray:none;stroke-opacity:1"
             d="m -22.950768,48.228592 v 18.697037 c -3.718097,0.587954 -8.580213,4.228543 -8.600127,3.881214 -0.07879,-1.374211 0,-17.57845 0,-17.57845 2.149259,-1.967899 5.034188,-4.212469 8.600127,-4.999801 z"
             id="path986"
             inkscape:connector-curvature="0"
             sodipodi:nodetypes="ccscc" />
        </g>
      </g>
      <path
         sodipodi:nodetypes="cccccc"
         inkscape:connector-curvature="0"
         id="path992"
         d="m -28.819886,50.982054 v 7.526622 l 0.997117,-0.997117 0.900621,1.286603 v -8.90972 z"
         style="fill:#000000;fill-opacity:1;fill-rule:evenodd;stroke:#000000;stroke-width:0.2;stroke-linecap:butt;stroke-linejoin:miter;stroke-miterlimit:4;stroke-dasharray:none;stroke-opacity:1" />
    </g>
  </g>
  <g
     id="g1065"
     transform="translate(79.640667,0.79996219)"
     inkscape:export-xdpi="89.893227"
     inkscape:export-ydpi="89.893227">
    <circle
       r="19.038742"
       cy="18.778471"
       cx="-22.258217"
       id="circle970-3"
       style="opacity:1;fill:#666666;fill-opacity:1;stroke:none;stroke-width:1.96482337;stroke-miterlimit:4;stroke-dasharray:none;stroke-dashoffset:0;stroke-opacity:1" />
    <g
       transform="translate(-0.51464082)"
       id="g1036">
      <circle
         style="opacity:1;fill:#ffffff;fill-opacity:1;stroke:none;stroke-width:0.2;stroke-linecap:round;stroke-linejoin:bevel;stroke-miterlimit:4;stroke-dasharray:none;stroke-dashoffset:0;stroke-opacity:1;paint-order:markers stroke fill"
         id="path1013"
         cx="-33.001343"
         cy="10.13244"
         r="1.2222719" />
      <rect
         style="opacity:1;fill:#ffffff;fill-opacity:1;stroke:none;stroke-width:0.2;stroke-linecap:round;stroke-linejoin:bevel;stroke-miterlimit:4;stroke-dasharray:none;stroke-dashoffset:0;stroke-opacity:1;paint-order:markers stroke fill"
         id="rect1015"
         width="19.556351"
         height="2.4445438"
         x="-29.849167"
         y="8.9101677" />
      <rect
         y="13.354712"
         x="-27.533283"
         height="2.4445438"
         width="17.240467"
         id="rect1017"
         style="opacity:1;fill:#ffffff;fill-opacity:1;stroke:none;stroke-width:0.2;stroke-linecap:round;stroke-linejoin:bevel;stroke-miterlimit:4;stroke-dasharray:none;stroke-dashoffset:0;stroke-opacity:1;paint-order:markers stroke fill" />
      <rect
         style="opacity:1;fill:#ffffff;fill-opacity:1;stroke:none;stroke-width:0.2;stroke-linecap:round;stroke-linejoin:bevel;stroke-miterlimit:4;stroke-dasharray:none;stroke-dashoffset:0;stroke-opacity:1;paint-order:markers stroke fill"
         id="rect1019"
         width="17.240467"
         height="2.4445438"
         x="-27.533283"
         y="17.799255" />
      <circle
         r="1.2222719"
         cy="23.466072"
         cx="-33.001343"
         id="circle1021"
         style="opacity:1;fill:#ffffff;fill-opacity:1;stroke:none;stroke-width:0.2;stroke-linecap:round;stroke-linejoin:bevel;stroke-miterlimit:4;stroke-dasharray:none;stroke-dashoffset:0;stroke-opacity:1;paint-order:markers stroke fill" />
      <rect
         y="22.243799"
         x="-29.849167"
         height="2.4445438"
         width="19.556351"
         id="rect1023"
         style="opacity:1;fill:#ffffff;fill-opacity:1;stroke:none;stroke-width:0.2;stroke-linecap:round;stroke-linejoin:bevel;stroke-miterlimit:4;stroke-dasharray:none;stroke-dashoffset:0;stroke-opacity:1;paint-order:markers stroke fill" />
      <rect
         style="opacity:1;fill:#ffffff;fill-opacity:1;stroke:none;stroke-width:0.2;stroke-linecap:round;stroke-linejoin:bevel;stroke-miterlimit:4;stroke-dasharray:none;stroke-dashoffset:0;stroke-opacity:1;paint-order:markers stroke fill"
         id="rect1025"
         width="17.240467"
         height="2.4445438"
         x="-27.533283"
         y="26.688343" />
    </g>
  </g>
  <g
     id="g1076"
     transform="translate(79.702543,-6.4910314)"
     inkscape:export-xdpi="89.893227"
     inkscape:export-ydpi="89.893227">
    <circle
       style="opacity:1;fill:#913f00;fill-opacity:1;stroke:none;stroke-width:1.96482337;stroke-miterlimit:4;stroke-dasharray:none;stroke-dashoffset:0;stroke-opacity:1"
       id="circle1038"
       cx="-22.258217"
       cy="64.452843"
       r="19.038742" />
    <g
       style="fill:#dce48d;fill-opacity:1"
       id="g1054"
       transform="translate(-0.51464082,45.674373)">
      <circle
         r="1.2222719"
         cy="10.13244"
         cx="-33.001343"
         id="circle1040"
         style="opacity:1;fill:#865b3a;fill-opacity:1;stroke:none;stroke-width:0.2;stroke-linecap:round;stroke-linejoin:bevel;stroke-miterlimit:4;stroke-dasharray:none;stroke-dashoffset:0;stroke-opacity:1;paint-order:markers stroke fill" />
      <rect
         y="8.9101677"
         x="-29.849167"
         height="2.4445438"
         width="19.556351"
         id="rect1042"
         style="opacity:1;fill:#dce48d;fill-opacity:1;stroke:none;stroke-width:0.2;stroke-linecap:round;stroke-linejoin:bevel;stroke-miterlimit:4;stroke-dasharray:none;stroke-dashoffset:0;stroke-opacity:1;paint-order:markers stroke fill" />
      <rect
         style="opacity:1;fill:#dce48d;fill-opacity:1;stroke:none;stroke-width:0.2;stroke-linecap:round;stroke-linejoin:bevel;stroke-miterlimit:4;stroke-dasharray:none;stroke-dashoffset:0;stroke-opacity:1;paint-order:markers stroke fill"
         id="rect1044"
         width="17.240467"
         height="2.4445438"
         x="-27.533283"
         y="13.354712" />
      <rect
         y="17.799255"
         x="-27.533283"
         height="2.4445438"
         width="17.240467"
         id="rect1046"
         style="opacity:1;fill:#dce48d;fill-opacity:1;stroke:none;stroke-width:0.2;stroke-linecap:round;stroke-linejoin:bevel;stroke-miterlimit:4;stroke-dasharray:none;stroke-dashoffset:0;stroke-opacity:1;paint-order:markers stroke fill" />
      <circle
         style="opacity:1;fill:#865b3a;fill-opacity:1;stroke:none;stroke-width:0.2;stroke-linecap:round;stroke-linejoin:bevel;stroke-miterlimit:4;stroke-dasharray:none;stroke-dashoffset:0;stroke-opacity:1;paint-order:markers stroke fill"
         id="circle1048"
         cx="-33.001343"
         cy="23.466072"
         r="1.2222719" />
      <rect
         style="opacity:1;fill:#dce48d;fill-opacity:1;stroke:none;stroke-width:0.2;stroke-linecap:round;stroke-linejoin:bevel;stroke-miterlimit:4;stroke-dasharray:none;stroke-dashoffset:0;stroke-opacity:1;paint-order:markers stroke fill"
         id="rect1050"
         width="19.556351"
         height="2.4445438"
         x="-29.849167"
         y="22.243799" />
      <rect
         y="26.688343"
         x="-27.533283"
         height="2.4445438"
         width="17.240467"
         id="rect1052"
         style="opacity:1;fill:#dce48d;fill-opacity:1;stroke:none;stroke-width:0.2;stroke-linecap:round;stroke-linejoin:bevel;stroke-miterlimit:4;stroke-dasharray:none;stroke-dashoffset:0;stroke-opacity:1;paint-order:markers stroke fill" />
    </g>
  </g>
  <g
     id="g1105"
     transform="translate(119.24136,0.45661947)"
     inkscape:export-xdpi="89.893227"
     inkscape:export-ydpi="89.893227">
    <circle
       r="19.038742"
       cy="57.543724"
       cx="-23.198706"
       id="circle1038-6"
       style="opacity:1;fill:#913f00;fill-opacity:1;stroke:none;stroke-width:1.96482337;stroke-miterlimit:4;stroke-dasharray:none;stroke-dashoffset:0;stroke-opacity:1" />
    <path
       sodipodi:nodetypes="cccccccccccccccc"
       inkscape:connector-curvature="0"
       id="path1093"
       d="m -23.684296,47.286357 4.366869,3.093201 v -3.139157 h 3.27516 v 4.776734 l 5.748491,3.318891 h -4.474821 v 12.511021 h -8.915699 v -8.733745 h -4.002966 v 8.733745 h -4.548825 V 56.066641 h -3.867548 z"
       style="fill:#dce48d;fill-opacity:1;fill-rule:evenodd;stroke:none;stroke-width:1px;stroke-linecap:butt;stroke-linejoin:miter;stroke-opacity:1" />
    <path
       style="fill:#dce48d;fill-opacity:1;fill-rule:evenodd;stroke:none;stroke-width:1px;stroke-linecap:butt;stroke-linejoin:miter;stroke-opacity:1"
       d="m -23.684296,47.286357 4.366869,3.093201 v -3.139157 h 3.27516 v 4.776734 l 5.748491,3.318891 h -4.474821 v 12.511021 h -8.915699 v -8.733745 h -4.002966 v 8.733745 h -4.548825 V 56.066641 h -3.867548 z"
       id="path1215"
       inkscape:connector-curvature="0"
       sodipodi:nodetypes="cccccccccccccccc" />
  </g>
  <g
     id="g1101"
     transform="translate(119.07551,3.6613848)"
     inkscape:export-xdpi="89.893227"
     inkscape:export-ydpi="89.893227">
    <circle
       style="opacity:1;fill:#666666;fill-opacity:1;stroke:none;stroke-width:1.96482337;stroke-miterlimit:4;stroke-dasharray:none;stroke-dashoffset:0;stroke-opacity:1"
       id="circle1095"
       cx="-23.198706"
       cy="15.917048"
       r="19.038742" />
    <path
       style="fill:#fffffa;fill-opacity:1;fill-rule:evenodd;stroke:none;stroke-width:1px;stroke-linecap:butt;stroke-linejoin:miter;stroke-opacity:1"
       d="m -23.684296,5.6596805 4.366869,3.093201 v -3.139157 h 3.27516 v 4.7767345 l 5.748491,3.318891 h -4.474821 v 12.511021 h -8.915699 v -8.733745 h -4.002966 v 8.733745 h -4.548825 V 14.439965 h -3.867548 z"
       id="path1097"
       inkscape:connector-curvature="0"
       sodipodi:nodetypes="cccccccccccccccc" />
  </g>
  <g
     id="g1133"
     transform="translate(102.26644,-37.498141)"
     inkscape:export-xdpi="89.893227"
     inkscape:export-ydpi="89.893227">
    <g
       transform="matrix(1.0496535,0,0,1.0496535,65.533719,-5.735322)"
       id="g1131">
      <g
         id="g1127">
        <path
           sodipodi:nodetypes="ccccc"
           inkscape:connector-curvature="0"
           id="path1109"
           d="m -31.368942,53.26836 h -1.018156 v 17.561894 h 0.973583 z"
           style="fill:#ffffff;fill-opacity:1;fill-rule:evenodd;stroke:#000000;stroke-width:0.30000001;stroke-linecap:butt;stroke-linejoin:miter;stroke-miterlimit:4;stroke-dasharray:none;stroke-opacity:1" />
        <g
           id="g1117">
          <path
             style="fill:#ffffff;fill-opacity:1;fill-rule:evenodd;stroke:#000000;stroke-width:0.35457075;stroke-linecap:butt;stroke-linejoin:miter;stroke-miterlimit:4;stroke-dasharray:none;stroke-opacity:1"
             d="m -20.403426,50.457515 v 18.697037 c -4.172979,-0.367299 -11.127555,1.99962 -11.147469,1.652291 -0.07879,-1.374211 0,-17.57845 0,-17.57845 2.149259,-1.967899 7.58153,-1.983546 11.147469,-2.770878 z"
             id="path1111"
             inkscape:connector-curvature="0"
             sodipodi:nodetypes="ccscc" />
          <path
             sodipodi:nodetypes="ccscc"
             inkscape:connector-curvature="0"
             id="path1113"
             d="m -21.586121,49.183845 v 18.697037 c -3.718097,0.269536 -9.94486,3.27329 -9.964774,2.925961 -0.07879,-1.374211 0,-17.57845 0,-17.57845 2.149259,-1.967899 6.398835,-3.257216 9.964774,-4.044548 z"
             style="fill:#ffffff;fill-opacity:1;fill-rule:evenodd;stroke:#000000;stroke-width:0.35457075;stroke-linecap:butt;stroke-linejoin:miter;stroke-miterlimit:4;stroke-dasharray:none;stroke-opacity:1" />
          <path
             style="fill:#ffffff;fill-opacity:1;fill-rule:evenodd;stroke:#000000;stroke-width:0.35457075;stroke-linecap:butt;stroke-linejoin:miter;stroke-miterlimit:4;stroke-dasharray:none;stroke-opacity:1"
             d="m -22.950768,48.228592 v 18.697037 c -3.718097,0.587954 -8.580213,4.228543 -8.600127,3.881214 -0.07879,-1.374211 0,-17.57845 0,-17.57845 2.149259,-1.967899 5.034188,-4.212469 8.600127,-4.999801 z"
             id="path1115"
             inkscape:connector-curvature="0"
             sodipodi:nodetypes="ccscc" />
        </g>
        <g
           transform="matrix(-1,0,0,1,-63.952749,0)"
           id="g1125">
          <path
             sodipodi:nodetypes="ccscc"
             inkscape:connector-curvature="0"
             id="path1119"
             d="m -20.403426,50.457515 v 18.697037 c -4.172979,-0.367299 -11.127555,1.99962 -11.147469,1.652291 -0.07879,-1.374211 0,-17.57845 0,-17.57845 2.149259,-1.967899 7.58153,-1.983546 11.147469,-2.770878 z"
             style="fill:#ffffff;fill-opacity:1;fill-rule:evenodd;stroke:#000000;stroke-width:0.35457075;stroke-linecap:butt;stroke-linejoin:miter;stroke-miterlimit:4;stroke-dasharray:none;stroke-opacity:1" />
          <path
             style="fill:#ffffff;fill-opacity:1;fill-rule:evenodd;stroke:#000000;stroke-width:0.35457075;stroke-linecap:butt;stroke-linejoin:miter;stroke-miterlimit:4;stroke-dasharray:none;stroke-opacity:1"
             d="m -21.586121,49.183845 v 18.697037 c -3.718097,0.269536 -9.94486,3.27329 -9.964774,2.925961 -0.07879,-1.374211 0,-17.57845 0,-17.57845 2.149259,-1.967899 6.398835,-3.257216 9.964774,-4.044548 z"
             id="path1121"
             inkscape:connector-curvature="0"
             sodipodi:nodetypes="ccscc" />
          <path
             sodipodi:nodetypes="ccscc"
             inkscape:connector-curvature="0"
             id="path1123"
             d="m -22.950768,48.228592 v 18.697037 c -3.718097,0.587954 -8.580213,4.228543 -8.600127,3.881214 -0.07879,-1.374211 0,-17.57845 0,-17.57845 2.149259,-1.967899 5.034188,-4.212469 8.600127,-4.999801 z"
             style="fill:#ffffff;fill-opacity:1;fill-rule:evenodd;stroke:#000000;stroke-width:0.35457075;stroke-linecap:butt;stroke-linejoin:miter;stroke-miterlimit:4;stroke-dasharray:none;stroke-opacity:1" />
        </g>
      </g>
      <path
         style="fill:#000000;fill-opacity:1;fill-rule:evenodd;stroke:#000000;stroke-width:0.2;stroke-linecap:butt;stroke-linejoin:miter;stroke-miterlimit:4;stroke-dasharray:none;stroke-opacity:1"
         d="m -28.819886,50.982054 v 7.526622 l 0.997117,-0.997117 0.900621,1.286603 v -8.90972 z"
         id="path1129"
         inkscape:connector-curvature="0"
         sodipodi:nodetypes="cccccc" />
    </g>
  </g>
  <g
     transform="translate(102.26644,1.2285807)"
     id="g1161"
     inkscape:export-xdpi="89.893227"
     inkscape:export-ydpi="89.893227">
    <g
       id="g1159"
       transform="matrix(1.0496535,0,0,1.0496535,65.533719,-5.735322)">
      <g
         id="g1155">
        <path
           style="fill:#dce48d;fill-opacity:1;fill-rule:evenodd;stroke:#000000;stroke-width:0.30000001;stroke-linecap:butt;stroke-linejoin:miter;stroke-miterlimit:4;stroke-dasharray:none;stroke-opacity:1"
           d="m -31.368942,53.26836 h -1.018156 v 17.561894 h 0.973583 z"
           id="path1137"
           inkscape:connector-curvature="0"
           sodipodi:nodetypes="ccccc" />
        <g
           id="g1145">
          <path
             sodipodi:nodetypes="ccscc"
             inkscape:connector-curvature="0"
             id="path1139"
             d="m -20.403426,50.457515 v 18.697037 c -4.172979,-0.367299 -11.127555,1.99962 -11.147469,1.652291 -0.07879,-1.374211 0,-17.57845 0,-17.57845 2.149259,-1.967899 7.58153,-1.983546 11.147469,-2.770878 z"
             style="fill:#dce48d;fill-opacity:1;fill-rule:evenodd;stroke:#000000;stroke-width:0.35457075;stroke-linecap:butt;stroke-linejoin:miter;stroke-miterlimit:4;stroke-dasharray:none;stroke-opacity:1" />
          <path
             style="fill:#dce48d;fill-opacity:1;fill-rule:evenodd;stroke:#000000;stroke-width:0.35457075;stroke-linecap:butt;stroke-linejoin:miter;stroke-miterlimit:4;stroke-dasharray:none;stroke-opacity:1"
             d="m -21.586121,49.183845 v 18.697037 c -3.718097,0.269536 -9.94486,3.27329 -9.964774,2.925961 -0.07879,-1.374211 0,-17.57845 0,-17.57845 2.149259,-1.967899 6.398835,-3.257216 9.964774,-4.044548 z"
             id="path1141"
             inkscape:connector-curvature="0"
             sodipodi:nodetypes="ccscc" />
          <path
             sodipodi:nodetypes="ccscc"
             inkscape:connector-curvature="0"
             id="path1143"
             d="m -22.950768,48.228592 v 18.697037 c -3.718097,0.587954 -8.580213,4.228543 -8.600127,3.881214 -0.07879,-1.374211 0,-17.57845 0,-17.57845 2.149259,-1.967899 5.034188,-4.212469 8.600127,-4.999801 z"
             style="fill:#dce48d;fill-opacity:1;fill-rule:evenodd;stroke:#000000;stroke-width:0.35457075;stroke-linecap:butt;stroke-linejoin:miter;stroke-miterlimit:4;stroke-dasharray:none;stroke-opacity:1" />
        </g>
        <g
           id="g1153"
           transform="matrix(-1,0,0,1,-63.952749,0)">
          <path
             style="fill:#dce48d;fill-opacity:1;fill-rule:evenodd;stroke:#000000;stroke-width:0.35457075;stroke-linecap:butt;stroke-linejoin:miter;stroke-miterlimit:4;stroke-dasharray:none;stroke-opacity:1"
             d="m -20.403426,50.457515 v 18.697037 c -4.172979,-0.367299 -11.127555,1.99962 -11.147469,1.652291 -0.07879,-1.374211 0,-17.57845 0,-17.57845 2.149259,-1.967899 7.58153,-1.983546 11.147469,-2.770878 z"
             id="path1147"
             inkscape:connector-curvature="0"
             sodipodi:nodetypes="ccscc" />
          <path
             sodipodi:nodetypes="ccscc"
             inkscape:connector-curvature="0"
             id="path1149"
             d="m -21.586121,49.183845 v 18.697037 c -3.718097,0.269536 -9.94486,3.27329 -9.964774,2.925961 -0.07879,-1.374211 0,-17.57845 0,-17.57845 2.149259,-1.967899 6.398835,-3.257216 9.964774,-4.044548 z"
             style="fill:#dce48d;fill-opacity:1;fill-rule:evenodd;stroke:#000000;stroke-width:0.35457075;stroke-linecap:butt;stroke-linejoin:miter;stroke-miterlimit:4;stroke-dasharray:none;stroke-opacity:1" />
          <path
             style="fill:#dce48d;fill-opacity:1;fill-rule:evenodd;stroke:#000000;stroke-width:0.35457075;stroke-linecap:butt;stroke-linejoin:miter;stroke-miterlimit:4;stroke-dasharray:none;stroke-opacity:1"
             d="m -22.950768,48.228592 v 18.697037 c -3.718097,0.587954 -8.580213,4.228543 -8.600127,3.881214 -0.07879,-1.374211 0,-17.57845 0,-17.57845 2.149259,-1.967899 5.034188,-4.212469 8.600127,-4.999801 z"
             id="path1151"
             inkscape:connector-curvature="0"
             sodipodi:nodetypes="ccscc" />
        </g>
      </g>
      <path
         sodipodi:nodetypes="cccccc"
         inkscape:connector-curvature="0"
         id="path1157"
         d="m -28.819886,50.982054 v 7.526622 l 0.997117,-0.997117 0.900621,1.286603 v -8.90972 z"
         style="fill:#865b3a;fill-opacity:1;fill-rule:evenodd;stroke:#000000;stroke-width:0.2;stroke-linecap:butt;stroke-linejoin:miter;stroke-miterlimit:4;stroke-dasharray:none;stroke-opacity:1" />
    </g>
  </g>
  <g
     transform="matrix(0.64569822,0,0,0.64569822,-11.485706,48.326741)"
     id="g1187"
     style="fill:#666666;fill-opacity:1"
     inkscape:export-xdpi="89.893227"
     inkscape:export-ydpi="89.893227">
    <g
       id="g1185"
       transform="matrix(1.0496535,0,0,1.0496535,65.533719,-5.735322)"
       style="fill:#666666;fill-opacity:1">
      <g
         id="g1181"
         style="fill:#666666;fill-opacity:1">
        <path
           style="fill:#666666;fill-opacity:1;fill-rule:evenodd;stroke:#000000;stroke-width:0.30000001;stroke-linecap:butt;stroke-linejoin:miter;stroke-miterlimit:4;stroke-dasharray:none;stroke-opacity:1"
           d="m -31.368942,53.26836 h -1.018156 v 17.561894 h 0.973583 z"
           id="path1163"
           inkscape:connector-curvature="0"
           sodipodi:nodetypes="ccccc" />
        <g
           id="g1171"
           style="fill:#666666;fill-opacity:1">
          <path
             sodipodi:nodetypes="ccscc"
             inkscape:connector-curvature="0"
             id="path1165"
             d="m -20.403426,50.457515 v 18.697037 c -4.172979,-0.367299 -11.127555,1.99962 -11.147469,1.652291 -0.07879,-1.374211 0,-17.57845 0,-17.57845 2.149259,-1.967899 7.58153,-1.983546 11.147469,-2.770878 z"
             style="fill:#666666;fill-opacity:1;fill-rule:evenodd;stroke:#000000;stroke-width:0.35457075;stroke-linecap:butt;stroke-linejoin:miter;stroke-miterlimit:4;stroke-dasharray:none;stroke-opacity:1" />
          <path
             style="fill:#666666;fill-opacity:1;fill-rule:evenodd;stroke:#000000;stroke-width:0.35457075;stroke-linecap:butt;stroke-linejoin:miter;stroke-miterlimit:4;stroke-dasharray:none;stroke-opacity:1"
             d="m -21.586121,49.183845 v 18.697037 c -3.718097,0.269536 -9.94486,3.27329 -9.964774,2.925961 -0.07879,-1.374211 0,-17.57845 0,-17.57845 2.149259,-1.967899 6.398835,-3.257216 9.964774,-4.044548 z"
             id="path1167"
             inkscape:connector-curvature="0"
             sodipodi:nodetypes="ccscc" />
          <path
             sodipodi:nodetypes="ccscc"
             inkscape:connector-curvature="0"
             id="path1169"
             d="m -22.950768,48.228592 v 18.697037 c -3.718097,0.587954 -8.580213,4.228543 -8.600127,3.881214 -0.07879,-1.374211 0,-17.57845 0,-17.57845 2.149259,-1.967899 5.034188,-4.212469 8.600127,-4.999801 z"
             style="fill:#666666;fill-opacity:1;fill-rule:evenodd;stroke:#000000;stroke-width:0.35457075;stroke-linecap:butt;stroke-linejoin:miter;stroke-miterlimit:4;stroke-dasharray:none;stroke-opacity:1" />
        </g>
        <g
           id="g1179"
           transform="matrix(-1,0,0,1,-63.952749,0)"
           style="fill:#666666;fill-opacity:1">
          <path
             style="fill:#666666;fill-opacity:1;fill-rule:evenodd;stroke:#000000;stroke-width:0.35457075;stroke-linecap:butt;stroke-linejoin:miter;stroke-miterlimit:4;stroke-dasharray:none;stroke-opacity:1"
             d="m -20.403426,50.457515 v 18.697037 c -4.172979,-0.367299 -11.127555,1.99962 -11.147469,1.652291 -0.07879,-1.374211 0,-17.57845 0,-17.57845 2.149259,-1.967899 7.58153,-1.983546 11.147469,-2.770878 z"
             id="path1173"
             inkscape:connector-curvature="0"
             sodipodi:nodetypes="ccscc" />
          <path
             sodipodi:nodetypes="ccscc"
             inkscape:connector-curvature="0"
             id="path1175"
             d="m -21.586121,49.183845 v 18.697037 c -3.718097,0.269536 -9.94486,3.27329 -9.964774,2.925961 -0.07879,-1.374211 0,-17.57845 0,-17.57845 2.149259,-1.967899 6.398835,-3.257216 9.964774,-4.044548 z"
             style="fill:#666666;fill-opacity:1;fill-rule:evenodd;stroke:#000000;stroke-width:0.35457075;stroke-linecap:butt;stroke-linejoin:miter;stroke-miterlimit:4;stroke-dasharray:none;stroke-opacity:1" />
          <path
             style="fill:#666666;fill-opacity:1;fill-rule:evenodd;stroke:#000000;stroke-width:0.35457075;stroke-linecap:butt;stroke-linejoin:miter;stroke-miterlimit:4;stroke-dasharray:none;stroke-opacity:1"
             d="m -22.950768,48.228592 v 18.697037 c -3.718097,0.587954 -8.580213,4.228543 -8.600127,3.881214 -0.07879,-1.374211 0,-17.57845 0,-17.57845 2.149259,-1.967899 5.034188,-4.212469 8.600127,-4.999801 z"
             id="path1177"
             inkscape:connector-curvature="0"
             sodipodi:nodetypes="ccscc" />
        </g>
      </g>
      <path
         sodipodi:nodetypes="cccccc"
         inkscape:connector-curvature="0"
         id="path1183"
         d="m -28.819886,50.982054 v 7.526622 l 0.997117,-0.997117 0.900621,1.286603 v -8.90972 z"
         style="fill:#ffffff;fill-opacity:1;fill-rule:evenodd;stroke:#000000;stroke-width:0.2;stroke-linecap:butt;stroke-linejoin:miter;stroke-miterlimit:4;stroke-dasharray:none;stroke-opacity:1" />
    </g>
  </g>
  <g
     id="g1213"
     transform="matrix(0.64569822,0,0,0.64569822,8.6185697,48.326741)"
     style="fill:#913f00;fill-opacity:1"
     inkscape:export-xdpi="89.893227"
     inkscape:export-ydpi="89.893227">
    <g
       transform="matrix(1.0496535,0,0,1.0496535,65.533719,-5.735322)"
       id="g1211"
       style="fill:#913f00;fill-opacity:1">
      <g
         id="g1207"
         style="fill:#913f00;fill-opacity:1">
        <path
           sodipodi:nodetypes="ccccc"
           inkscape:connector-curvature="0"
           id="path1189"
           d="m -31.368942,53.26836 h -1.018156 v 17.561894 h 0.973583 z"
           style="fill:#913f00;fill-opacity:1;fill-rule:evenodd;stroke:#000000;stroke-width:0.30000001;stroke-linecap:butt;stroke-linejoin:miter;stroke-miterlimit:4;stroke-dasharray:none;stroke-opacity:1" />
        <g
           id="g1197"
           style="fill:#913f00;fill-opacity:1">
          <path
             style="fill:#913f00;fill-opacity:1;fill-rule:evenodd;stroke:#000000;stroke-width:0.35457075;stroke-linecap:butt;stroke-linejoin:miter;stroke-miterlimit:4;stroke-dasharray:none;stroke-opacity:1"
             d="m -20.403426,50.457515 v 18.697037 c -4.172979,-0.367299 -11.127555,1.99962 -11.147469,1.652291 -0.07879,-1.374211 0,-17.57845 0,-17.57845 2.149259,-1.967899 7.58153,-1.983546 11.147469,-2.770878 z"
             id="path1191"
             inkscape:connector-curvature="0"
             sodipodi:nodetypes="ccscc" />
          <path
             sodipodi:nodetypes="ccscc"
             inkscape:connector-curvature="0"
             id="path1193"
             d="m -21.586121,49.183845 v 18.697037 c -3.718097,0.269536 -9.94486,3.27329 -9.964774,2.925961 -0.07879,-1.374211 0,-17.57845 0,-17.57845 2.149259,-1.967899 6.398835,-3.257216 9.964774,-4.044548 z"
             style="fill:#913f00;fill-opacity:1;fill-rule:evenodd;stroke:#000000;stroke-width:0.35457075;stroke-linecap:butt;stroke-linejoin:miter;stroke-miterlimit:4;stroke-dasharray:none;stroke-opacity:1" />
          <path
             style="fill:#913f00;fill-opacity:1;fill-rule:evenodd;stroke:#000000;stroke-width:0.35457075;stroke-linecap:butt;stroke-linejoin:miter;stroke-miterlimit:4;stroke-dasharray:none;stroke-opacity:1"
             d="m -22.950768,48.228592 v 18.697037 c -3.718097,0.587954 -8.580213,4.228543 -8.600127,3.881214 -0.07879,-1.374211 0,-17.57845 0,-17.57845 2.149259,-1.967899 5.034188,-4.212469 8.600127,-4.999801 z"
             id="path1195"
             inkscape:connector-curvature="0"
             sodipodi:nodetypes="ccscc" />
        </g>
        <g
           transform="matrix(-1,0,0,1,-63.952749,0)"
           id="g1205"
           style="fill:#913f00;fill-opacity:1">
          <path
             sodipodi:nodetypes="ccscc"
             inkscape:connector-curvature="0"
             id="path1199"
             d="m -20.403426,50.457515 v 18.697037 c -4.172979,-0.367299 -11.127555,1.99962 -11.147469,1.652291 -0.07879,-1.374211 0,-17.57845 0,-17.57845 2.149259,-1.967899 7.58153,-1.983546 11.147469,-2.770878 z"
             style="fill:#913f00;fill-opacity:1;fill-rule:evenodd;stroke:#000000;stroke-width:0.35457075;stroke-linecap:butt;stroke-linejoin:miter;stroke-miterlimit:4;stroke-dasharray:none;stroke-opacity:1" />
          <path
             style="fill:#913f00;fill-opacity:1;fill-rule:evenodd;stroke:#000000;stroke-width:0.35457075;stroke-linecap:butt;stroke-linejoin:miter;stroke-miterlimit:4;stroke-dasharray:none;stroke-opacity:1"
             d="m -21.586121,49.183845 v 18.697037 c -3.718097,0.269536 -9.94486,3.27329 -9.964774,2.925961 -0.07879,-1.374211 0,-17.57845 0,-17.57845 2.149259,-1.967899 6.398835,-3.257216 9.964774,-4.044548 z"
             id="path1201"
             inkscape:connector-curvature="0"
             sodipodi:nodetypes="ccscc" />
          <path
             sodipodi:nodetypes="ccscc"
             inkscape:connector-curvature="0"
             id="path1203"
             d="m -22.950768,48.228592 v 18.697037 c -3.718097,0.587954 -8.580213,4.228543 -8.600127,3.881214 -0.07879,-1.374211 0,-17.57845 0,-17.57845 2.149259,-1.967899 5.034188,-4.212469 8.600127,-4.999801 z"
             style="fill:#913f00;fill-opacity:1;fill-rule:evenodd;stroke:#000000;stroke-width:0.35457075;stroke-linecap:butt;stroke-linejoin:miter;stroke-miterlimit:4;stroke-dasharray:none;stroke-opacity:1" />
        </g>
      </g>
      <path
         style="fill:#dce48d;fill-opacity:1;fill-rule:evenodd;stroke:#000000;stroke-width:0.2;stroke-linecap:butt;stroke-linejoin:miter;stroke-miterlimit:4;stroke-dasharray:none;stroke-opacity:1"
         d="m -28.819886,50.982054 v 7.526622 l 0.997117,-0.997117 0.900621,1.286603 v -8.90972 z"
         id="path1209"
         inkscape:connector-curvature="0"
         sodipodi:nodetypes="cccccc" />
    </g>
  </g>
  <path
     style="fill:#666666;fill-opacity:1;fill-rule:evenodd;stroke:none;stroke-width:0.7277984px;stroke-linecap:butt;stroke-linejoin:miter;stroke-opacity:1"
     d="m 47.879215,77.531492 3.178201,2.251227 v -2.284673 h 2.383656 v 3.476499 l 4.183743,2.415484 H 54.368047 V 92.49553 H 47.879215 V 86.139124 H 44.965864 V 92.49553 H 41.655236 V 83.92177 H 38.84044 Z"
     id="path1215-7"
     inkscape:connector-curvature="0"
     sodipodi:nodetypes="cccccccccccccccc"
     inkscape:export-xdpi="89.893227"
     inkscape:export-ydpi="89.893227" />
  <path
     sodipodi:nodetypes="cccccccccccccccc"
     inkscape:connector-curvature="0"
     id="path1232"
     d="m 67.189901,77.531492 3.178201,2.251227 v -2.284673 h 2.383656 v 3.476499 l 4.183743,2.415484 H 73.678733 V 92.49553 H 67.189901 V 86.139124 H 64.27655 v 6.356406 h -3.310628 v -8.57376 h -2.814796 z"
     style="fill:#913f00;fill-opacity:1;fill-rule:evenodd;stroke:none;stroke-width:0.7277984px;stroke-linecap:butt;stroke-linejoin:miter;stroke-opacity:1"
     inkscape:export-xdpi="89.893227"
     inkscape:export-ydpi="89.893227" />
  <circle
     r="1.2222719"
     cy="49.113636"
     cx="161.71782"
     id="circle1040-5"
     style="opacity:1;fill:#913f00;fill-opacity:1;stroke:none;stroke-width:0.2;stroke-linecap:round;stroke-linejoin:bevel;stroke-miterlimit:4;stroke-dasharray:none;stroke-dashoffset:0;stroke-opacity:1;paint-order:markers stroke fill"
     inkscape:export-xdpi="89.893227"
     inkscape:export-ydpi="89.893227" />
  <rect
     y="47.891361"
     x="164.87"
     height="2.4445438"
     width="19.556351"
     id="rect1042-3"
     style="opacity:1;fill:#913f00;fill-opacity:1;stroke:none;stroke-width:0.2;stroke-linecap:round;stroke-linejoin:bevel;stroke-miterlimit:4;stroke-dasharray:none;stroke-dashoffset:0;stroke-opacity:1;paint-order:markers stroke fill"
     inkscape:export-xdpi="89.893227"
     inkscape:export-ydpi="89.893227" />
  <rect
     style="opacity:1;fill:#913f00;fill-opacity:1;stroke:none;stroke-width:0.2;stroke-linecap:round;stroke-linejoin:bevel;stroke-miterlimit:4;stroke-dasharray:none;stroke-dashoffset:0;stroke-opacity:1;paint-order:markers stroke fill"
     id="rect1044-5"
     width="17.240467"
     height="2.4445438"
     x="167.18587"
     y="52.335907"
     inkscape:export-xdpi="89.893227"
     inkscape:export-ydpi="89.893227" />
  <rect
     y="56.780449"
     x="167.18587"
     height="2.4445438"
     width="17.240467"
     id="rect1046-6"
     style="opacity:1;fill:#913f00;fill-opacity:1;stroke:none;stroke-width:0.2;stroke-linecap:round;stroke-linejoin:bevel;stroke-miterlimit:4;stroke-dasharray:none;stroke-dashoffset:0;stroke-opacity:1;paint-order:markers stroke fill"
     inkscape:export-xdpi="89.893227"
     inkscape:export-ydpi="89.893227" />
  <circle
     style="opacity:1;fill:#913f00;fill-opacity:1;stroke:none;stroke-width:0.2;stroke-linecap:round;stroke-linejoin:bevel;stroke-miterlimit:4;stroke-dasharray:none;stroke-dashoffset:0;stroke-opacity:1;paint-order:markers stroke fill"
     id="circle1048-2"
     cx="161.71782"
     cy="62.447266"
     r="1.2222719"
     inkscape:export-xdpi="89.893227"
     inkscape:export-ydpi="89.893227" />
  <rect
     style="opacity:1;fill:#913f00;fill-opacity:1;stroke:none;stroke-width:0.2;stroke-linecap:round;stroke-linejoin:bevel;stroke-miterlimit:4;stroke-dasharray:none;stroke-dashoffset:0;stroke-opacity:1;paint-order:markers stroke fill"
     id="rect1050-9"
     width="19.556351"
     height="2.4445438"
     x="164.87"
     y="61.224995"
     inkscape:export-xdpi="89.893227"
     inkscape:export-ydpi="89.893227" />
  <rect
     y="65.66954"
     x="167.18587"
     height="2.4445438"
     width="17.240467"
     id="rect1052-1"
     style="opacity:1;fill:#913f00;fill-opacity:1;stroke:none;stroke-width:0.2;stroke-linecap:round;stroke-linejoin:bevel;stroke-miterlimit:4;stroke-dasharray:none;stroke-dashoffset:0;stroke-opacity:1;paint-order:markers stroke fill"
     inkscape:export-xdpi="89.893227"
     inkscape:export-ydpi="89.893227" />
  <g
     transform="translate(194.67651,-44.821091)"
     id="g1285"
     inkscape:export-xdpi="89.893227"
     inkscape:export-ydpi="89.893227">
    <circle
       r="19.038742"
       cy="64.452843"
       cx="-22.258217"
       id="circle1267"
       style="opacity:1;fill:#913f00;fill-opacity:0.78325124;stroke:none;stroke-width:1.96482337;stroke-miterlimit:4;stroke-dasharray:none;stroke-dashoffset:0;stroke-opacity:1" />
    <g
       transform="translate(-0.51464082,45.674373)"
       id="g1283"
       style="fill:#dce48d;fill-opacity:1">
      <circle
         style="opacity:1;fill:#865b3a;fill-opacity:0.69458127;stroke:none;stroke-width:0.2;stroke-linecap:round;stroke-linejoin:bevel;stroke-miterlimit:4;stroke-dasharray:none;stroke-dashoffset:0;stroke-opacity:1;paint-order:markers stroke fill"
         id="circle1269"
         cx="-33.001343"
         cy="10.13244"
         r="1.2222719" />
      <rect
         style="opacity:1;fill:#dce48d;fill-opacity:0.63054187;stroke:none;stroke-width:0.2;stroke-linecap:round;stroke-linejoin:bevel;stroke-miterlimit:4;stroke-dasharray:none;stroke-dashoffset:0;stroke-opacity:1;paint-order:markers stroke fill"
         id="rect1271"
         width="19.556351"
         height="2.4445438"
         x="-29.849167"
         y="8.9101677" />
      <rect
         y="13.354712"
         x="-27.533283"
         height="2.4445438"
         width="17.240467"
         id="rect1273"
         style="opacity:1;fill:#dce48d;fill-opacity:0.63054187;stroke:none;stroke-width:0.2;stroke-linecap:round;stroke-linejoin:bevel;stroke-miterlimit:4;stroke-dasharray:none;stroke-dashoffset:0;stroke-opacity:1;paint-order:markers stroke fill" />
      <rect
         style="opacity:1;fill:#dce48d;fill-opacity:0.63054187;stroke:none;stroke-width:0.2;stroke-linecap:round;stroke-linejoin:bevel;stroke-miterlimit:4;stroke-dasharray:none;stroke-dashoffset:0;stroke-opacity:1;paint-order:markers stroke fill"
         id="rect1275"
         width="17.240467"
         height="2.4445438"
         x="-27.533283"
         y="17.799255" />
      <circle
         r="1.2222719"
         cy="23.466072"
         cx="-33.001343"
         id="circle1277"
         style="opacity:1;fill:#865b3a;fill-opacity:0.69458127;stroke:none;stroke-width:0.2;stroke-linecap:round;stroke-linejoin:bevel;stroke-miterlimit:4;stroke-dasharray:none;stroke-dashoffset:0;stroke-opacity:1;paint-order:markers stroke fill" />
      <rect
         y="22.243799"
         x="-29.849167"
         height="2.4445438"
         width="19.556351"
         id="rect1279"
         style="opacity:1;fill:#dce48d;fill-opacity:0.63054187;stroke:none;stroke-width:0.2;stroke-linecap:round;stroke-linejoin:bevel;stroke-miterlimit:4;stroke-dasharray:none;stroke-dashoffset:0;stroke-opacity:1;paint-order:markers stroke fill" />
      <rect
         style="opacity:1;fill:#dce48d;fill-opacity:0.63054187;stroke:none;stroke-width:0.2;stroke-linecap:round;stroke-linejoin:bevel;stroke-miterlimit:4;stroke-dasharray:none;stroke-dashoffset:0;stroke-opacity:1;paint-order:markers stroke fill"
         id="rect1281"
         width="17.240467"
         height="2.4445438"
         x="-27.533283"
         y="26.688343" />
    </g>
  </g>
  <circle
     r="19.038742"
     cy="19.674707"
     cx="210.94427"
     id="circle1337"
     style="opacity:1;fill:#9e6324;fill-opacity:1;stroke:none;stroke-width:1.96482337;stroke-miterlimit:4;stroke-dasharray:none;stroke-dashoffset:0;stroke-opacity:1"
     inkscape:export-xdpi="89.893227"
     inkscape:export-ydpi="89.893227" />
  <path
     style="opacity:1;fill:none;fill-opacity:1;stroke:#010000;stroke-width:1.66900003;stroke-linecap:round;stroke-linejoin:miter;stroke-miterlimit:4;stroke-dasharray:none;stroke-dashoffset:0;stroke-opacity:1;paint-order:markers stroke fill"
     d="m 214.06709,15.999719 c 0,1.200217 -0.52841,3.069515 -1.127,4.016502 4.43918,4.389025 4.42996,4.410719 9.0565,8.803768 -1.03422,1.065004 -0.0854,0.112042 -1.18427,1.173234 -5.06231,-5.043672 -5.04357,-4.998226 -8.83556,-8.735602 -1.22271,1.275159 -3.77937,2.610712 -5.77828,2.610714 -4.34572,3e-6 -7.86862,-3.522898 -7.86862,-7.868616 0,-4.345718 3.5229,-7.8686175 7.86862,-7.8686155 4.34571,3e-6 7.86861,3.5229015 7.86861,7.8686155 z"
     id="circle1512"
     inkscape:connector-curvature="0"
     sodipodi:nodetypes="sccccssss"
     inkscape:export-xdpi="89.893227"
     inkscape:export-ydpi="89.893227" />
  <path
     sodipodi:nodetypes="sccccssss"
     inkscape:connector-curvature="0"
     id="path1519"
     d="m 253.72833,15.999719 c 0,1.200217 -0.52841,3.069515 -1.127,4.016502 4.43918,4.389025 4.42996,4.410719 9.0565,8.803768 -1.03422,1.065004 -0.0854,0.112042 -1.18427,1.173234 -5.06231,-5.043672 -5.04357,-4.998226 -8.83556,-8.735602 -1.22271,1.275159 -3.77937,2.610712 -5.77828,2.610714 -4.34572,3e-6 -7.86862,-3.522898 -7.86862,-7.868616 0,-4.345718 3.5229,-7.8686176 7.86862,-7.8686156 4.34571,3e-6 7.86861,3.5229016 7.86861,7.8686156 z"
     style="opacity:1;fill:none;fill-opacity:1;stroke:#010000;stroke-width:1.66900003;stroke-linecap:round;stroke-linejoin:miter;stroke-miterlimit:4;stroke-dasharray:none;stroke-dashoffset:0;stroke-opacity:0.42857145;paint-order:markers stroke fill"
     inkscape:export-xdpi="89.893227"
     inkscape:export-ydpi="89.893227" />
  <path
     style="opacity:1;fill:none;fill-opacity:1;stroke:#010000;stroke-width:1.66900003;stroke-linecap:round;stroke-linejoin:miter;stroke-miterlimit:4;stroke-dasharray:none;stroke-dashoffset:0;stroke-opacity:0.74876847;paint-order:markers stroke fill"
     d="m 253.72833,54.150058 c 0,1.200217 -0.52841,3.069515 -1.127,4.016502 4.43918,4.389025 4.42996,4.410719 9.0565,8.803768 -1.03422,1.065004 -0.0854,0.112042 -1.18427,1.173234 -5.06231,-5.043672 -5.04357,-4.998226 -8.83556,-8.735602 -1.22271,1.275159 -3.77937,2.610712 -5.77828,2.610714 -4.34572,3e-6 -7.86862,-3.522898 -7.86862,-7.868616 0,-4.345718 3.5229,-7.868618 7.86862,-7.868616 4.34571,3e-6 7.86861,3.522902 7.86861,7.868616 z"
     id="path1526"
     inkscape:connector-curvature="0"
     sodipodi:nodetypes="sccccssss"
     inkscape:export-xdpi="89.893227"
     inkscape:export-ydpi="89.893227" />
  <path
     sodipodi:nodetypes="sccccssss"
     inkscape:connector-curvature="0"
     id="path1528"
     d="m 215.01141,54.527784 c 0,1.200217 -0.52841,3.069515 -1.127,4.016502 4.43918,4.389025 4.42996,4.410719 9.0565,8.803768 -1.03422,1.065004 -0.0854,0.112042 -1.18427,1.173234 -5.06231,-5.043672 -5.04357,-4.998226 -8.83556,-8.735602 -1.22271,1.275159 -3.77937,2.610712 -5.77828,2.610714 -4.34572,3e-6 -7.86862,-3.522898 -7.86862,-7.868616 0,-4.345718 3.5229,-7.868618 7.86862,-7.868616 4.34571,3e-6 7.86861,3.522902 7.86861,7.868616 z"
     style="opacity:1;fill:none;fill-opacity:1;stroke:#9e6324;stroke-width:1.66900003;stroke-linecap:round;stroke-linejoin:miter;stroke-miterlimit:4;stroke-dasharray:none;stroke-dashoffset:0;stroke-opacity:1;paint-order:markers stroke fill"
     inkscape:export-xdpi="89.893227"
     inkscape:export-ydpi="89.893227" />
  <path
     style="opacity:1;fill:none;fill-opacity:1;stroke:#9e6324;stroke-width:1.11427009;stroke-linecap:round;stroke-linejoin:miter;stroke-miterlimit:4;stroke-dasharray:none;stroke-dashoffset:0;stroke-opacity:1;paint-order:markers stroke fill"
     d="m 146.53713,83.364101 c 0,0.801297 -0.35277,2.049292 -0.75241,2.681527 2.96372,2.930232 2.95757,2.944716 6.04637,5.877636 -0.69048,0.711026 -0.057,0.07481 -0.79065,0.783283 -3.37975,-3.367293 -3.36723,-3.336953 -5.89887,-5.832127 -0.81631,0.851331 -2.52321,1.742982 -3.85773,1.742985 -2.90133,2e-6 -5.25331,-2.351984 -5.25331,-5.253304 0,-2.901321 2.35198,-5.253304 5.25331,-5.253303 2.90131,2e-6 5.25329,2.351985 5.25329,5.253303 z"
     id="path1530"
     inkscape:connector-curvature="0"
     sodipodi:nodetypes="sccccssss"
     inkscape:export-xdpi="89.893227"
     inkscape:export-ydpi="89.893227" />
  <path
     sodipodi:nodetypes="sccccssss"
     inkscape:connector-curvature="0"
     id="path1532"
     d="m 127.83969,83.364101 c 0,0.801297 -0.35277,2.049292 -0.75241,2.681527 2.96372,2.930232 2.95757,2.944716 6.04637,5.877636 -0.69048,0.711026 -0.057,0.07481 -0.79065,0.783283 -3.37975,-3.367293 -3.36723,-3.336953 -5.89887,-5.832127 -0.81631,0.851331 -2.52321,1.742982 -3.85773,1.742985 -2.90133,2e-6 -5.25331,-2.351984 -5.25331,-5.253304 0,-2.901321 2.35198,-5.253304 5.25331,-5.253303 2.90131,2e-6 5.25329,2.351985 5.25329,5.253303 z"
     style="opacity:1;fill:none;fill-opacity:1;stroke:#999999;stroke-width:1.11427009;stroke-linecap:round;stroke-linejoin:miter;stroke-miterlimit:4;stroke-dasharray:none;stroke-dashoffset:0;stroke-opacity:1;paint-order:markers stroke fill"
     inkscape:export-xdpi="89.893227"
     inkscape:export-ydpi="89.893227" />
  <g
     id="g1545"
     transform="translate(0.95907458,45.876466)"
     inkscape:export-xdpi="89.893227"
     inkscape:export-ydpi="89.893227">
    <circle
       r="19.038742"
       cy="-26.186251"
       cx="286.81958"
       id="circle1534"
       style="opacity:1;fill:#9e6324;fill-opacity:1;stroke:none;stroke-width:2.4000001;stroke-miterlimit:4;stroke-dasharray:none;stroke-dashoffset:0;stroke-opacity:1" />
    <path
       inkscape:connector-curvature="0"
       d="m 298.3453,-26.186251 h -21.90812 l 10.57633,10.576333 m 11.3883,-10.576333 h -21.90812 l 10.57633,-10.576333"
       style="fill:none;fill-rule:evenodd;stroke:#beb05d;stroke-width:2.4000001;stroke-linecap:butt;stroke-linejoin:round;stroke-miterlimit:4;stroke-dasharray:none;stroke-opacity:1"
       id="path1540" />
  </g>
  <g
     id="g1545-2"
     transform="matrix(-1,0,0,1,612.95077,45.876466)"
     inkscape:export-xdpi="89.893227"
     inkscape:export-ydpi="89.893227">
    <circle
       r="19.038742"
       cy="-26.186251"
       cx="286.81958"
       id="circle1534-3"
       style="opacity:1;fill:#9e6324;fill-opacity:1;stroke:none;stroke-width:2.4000001;stroke-miterlimit:4;stroke-dasharray:none;stroke-dashoffset:0;stroke-opacity:1" />
    <path
       inkscape:connector-curvature="0"
       d="m 298.3453,-26.186251 h -21.90812 l 10.57633,10.576333 m 11.3883,-10.576333 h -21.90812 l 10.57633,-10.576333"
       style="fill:none;fill-rule:evenodd;stroke:#beb05d;stroke-width:2.4000001;stroke-linecap:butt;stroke-linejoin:round;stroke-miterlimit:4;stroke-dasharray:none;stroke-opacity:1"
       id="path1540-7" />
  </g>
  <g
     transform="translate(116.70879,45.876466)"
     id="g1572"
     inkscape:export-xdpi="89.893227"
     inkscape:export-ydpi="89.893227">
    <circle
       style="opacity:1;fill:#666666;fill-opacity:1;stroke:none;stroke-width:2.4000001;stroke-miterlimit:4;stroke-dasharray:none;stroke-dashoffset:0;stroke-opacity:1"
       id="circle1568"
       cx="286.81958"
       cy="-26.186251"
       r="19.038742" />
    <path
       id="path1570"
       style="fill:none;fill-rule:evenodd;stroke:#fffffa;stroke-width:2.4000001;stroke-linecap:butt;stroke-linejoin:round;stroke-miterlimit:4;stroke-dasharray:none;stroke-opacity:1"
       d="m 298.3453,-26.186251 h -21.90812 l 10.57633,10.576333 m 11.3883,-10.576333 h -21.90812 l 10.57633,-10.576333"
       inkscape:connector-curvature="0" />
  </g>
  <g
     transform="matrix(-1,0,0,1,728.81376,45.876466)"
     id="g1578"
     inkscape:export-xdpi="89.893227"
     inkscape:export-ydpi="89.893227">
    <circle
       style="opacity:1;fill:#666666;fill-opacity:1;stroke:none;stroke-width:2.4000001;stroke-miterlimit:4;stroke-dasharray:none;stroke-dashoffset:0;stroke-opacity:1"
       id="circle1574"
       cx="286.81958"
       cy="-26.186251"
       r="19.038742" />
    <path
       id="path1576"
       style="fill:none;fill-rule:evenodd;stroke:#fffffa;stroke-width:2.4000001;stroke-linecap:butt;stroke-linejoin:round;stroke-miterlimit:4;stroke-dasharray:none;stroke-opacity:1"
       d="m 298.3453,-26.186251 h -21.90812 l 10.57633,10.576333 m 11.3883,-10.576333 h -21.90812 l 10.57633,-10.576333"
       inkscape:connector-curvature="0" />
  </g>
  <g
     id="g1584"
     transform="translate(116.70879,84.414764)"
     inkscape:export-xdpi="89.893227"
     inkscape:export-ydpi="89.893227">
    <circle
       r="19.038742"
       cy="-26.186251"
       cx="286.81958"
       id="circle1580"
       style="opacity:1;fill:#913f00;fill-opacity:1;stroke:none;stroke-width:2.4000001;stroke-miterlimit:4;stroke-dasharray:none;stroke-dashoffset:0;stroke-opacity:1" />
    <path
       inkscape:connector-curvature="0"
       d="m 298.3453,-26.186251 h -21.90812 l 10.57633,10.576333 m 11.3883,-10.576333 h -21.90812 l 10.57633,-10.576333"
       style="fill:none;fill-rule:evenodd;stroke:#dce48d;stroke-width:2.4000001;stroke-linecap:butt;stroke-linejoin:round;stroke-miterlimit:4;stroke-dasharray:none;stroke-opacity:1"
       id="path1582" />
  </g>
  <g
     id="g1590"
     transform="matrix(-1,0,0,1,728.81376,84.414764)"
     inkscape:export-xdpi="89.893227"
     inkscape:export-ydpi="89.893227">
    <circle
       r="19.038742"
       cy="-26.186251"
       cx="286.81958"
       id="circle1586"
       style="opacity:1;fill:#913f00;fill-opacity:1;stroke:none;stroke-width:2.4000001;stroke-miterlimit:4;stroke-dasharray:none;stroke-dashoffset:0;stroke-opacity:1" />
    <path
       inkscape:connector-curvature="0"
       d="m 298.3453,-26.186251 h -21.90812 l 10.57633,10.576333 m 11.3883,-10.576333 h -21.90812 l 10.57633,-10.576333"
       style="fill:none;fill-rule:evenodd;stroke:#dce48d;stroke-width:2.4000001;stroke-linecap:butt;stroke-linejoin:round;stroke-miterlimit:4;stroke-dasharray:none;stroke-opacity:1"
       id="path1588" />
  </g>
  <path
     id="path1570-5"
     style="fill:none;fill-rule:evenodd;stroke:#913f00;stroke-width:2.4000001;stroke-linecap:butt;stroke-linejoin:round;stroke-miterlimit:4;stroke-dasharray:none;stroke-opacity:1"
     d="M 299.58599,58.434923 H 277.67787 L 288.2542,69.011256 M 299.6425,58.434923 H 277.73438 L 288.31071,47.85859"
     inkscape:connector-curvature="0"
     inkscape:export-xdpi="89.893227"
     inkscape:export-ydpi="89.893227" />
  <path
     id="path1576-9"
     style="fill:none;fill-rule:evenodd;stroke:#913f00;stroke-width:2.4000001;stroke-linecap:butt;stroke-linejoin:round;stroke-miterlimit:4;stroke-dasharray:none;stroke-opacity:1"
     d="m 314.62632,58.434923 h 21.90812 l -10.57633,10.576333 m -11.3883,-10.576333 h 21.90812 L 325.9016,47.85859"
     inkscape:connector-curvature="0"
     inkscape:export-xdpi="89.893227"
     inkscape:export-ydpi="89.893227" />
  <path
     id="path1570-5-2"
     style="fill:none;fill-rule:evenodd;stroke:#999999;stroke-width:1.45396185;stroke-linecap:butt;stroke-linejoin:round;stroke-miterlimit:4;stroke-dasharray:none;stroke-opacity:1"
     d="m 173.45836,105.94386 h -13.27232 l 6.40732,6.40732 m 6.89923,-6.40732 h -13.27231 l 6.40732,-6.407324"
     inkscape:connector-curvature="0"
     inkscape:export-xdpi="89.893227"
     inkscape:export-ydpi="89.893227" />
  <path
     inkscape:connector-curvature="0"
     d="m 156.6542,85.594797 h 11.85257 l -5.72192,5.721926 m -6.16122,-5.721926 h 11.85257 l -5.72193,-5.72193"
     style="fill:none;fill-rule:evenodd;stroke:#666666;stroke-width:1.29843104;stroke-linecap:butt;stroke-linejoin:round;stroke-miterlimit:4;stroke-dasharray:none;stroke-opacity:1"
     id="path1625"
     inkscape:export-xdpi="89.893227"
     inkscape:export-ydpi="89.893227" />
  <path
     id="path1627"
     style="fill:none;fill-rule:evenodd;stroke:#913f00;stroke-width:1.29843104;stroke-linecap:butt;stroke-linejoin:round;stroke-miterlimit:4;stroke-dasharray:none;stroke-opacity:1"
     d="m 175.75229,85.594798 h 11.85257 l -5.72192,5.721925 m -6.16122,-5.721925 h 11.85257 l -5.72193,-5.72193"
     inkscape:connector-curvature="0"
     inkscape:export-xdpi="89.893227"
     inkscape:export-ydpi="89.893227" />
  <path
     id="path1629"
     style="fill:none;fill-rule:evenodd;stroke:#666666;stroke-width:1.29843104;stroke-linecap:butt;stroke-linejoin:round;stroke-miterlimit:4;stroke-dasharray:none;stroke-opacity:1"
     d="m 112.33142,85.594797 h -11.85257 l 5.72192,5.721926 m 6.16122,-5.721926 h -11.85257 l 5.72193,-5.72193"
     inkscape:connector-curvature="0"
     inkscape:export-xdpi="89.893227"
     inkscape:export-ydpi="89.893227" />
  <path
     inkscape:connector-curvature="0"
     d="m 93.233332,85.594798 h -11.85257 l 5.72192,5.721925 m 6.16122,-5.721925 h -11.85257 l 5.72193,-5.72193"
     style="fill:none;fill-rule:evenodd;stroke:#913f00;stroke-width:1.29843104;stroke-linecap:butt;stroke-linejoin:round;stroke-miterlimit:4;stroke-dasharray:none;stroke-opacity:1"
     id="path1631"
     inkscape:export-xdpi="89.893227"
     inkscape:export-ydpi="89.893227" />
  <path
     id="path1633"
     style="fill:none;fill-rule:evenodd;stroke:#989898;stroke-width:1.29843104;stroke-linecap:butt;stroke-linejoin:round;stroke-miterlimit:4;stroke-dasharray:none;stroke-opacity:0.98431373"
     d="m 214.03188,85.594797 h 11.85257 l -5.72192,5.721926 m -6.16122,-5.721926 h 11.85257 l -5.72193,-5.72193"
     inkscape:connector-curvature="0"
     inkscape:export-xdpi="89.893227"
     inkscape:export-ydpi="89.893227" />
  <path
     inkscape:connector-curvature="0"
     d="m 207.8219,85.594797 h -11.85257 l 5.72192,5.721926 m 6.16122,-5.721926 H 195.9999 l 5.72193,-5.72193"
     style="fill:none;fill-rule:evenodd;stroke:#989898;stroke-width:1.29843104;stroke-linecap:butt;stroke-linejoin:round;stroke-miterlimit:4;stroke-dasharray:none;stroke-opacity:0.98431373"
     id="path1635"
     inkscape:export-xdpi="89.893227"
     inkscape:export-ydpi="89.893227" />
  <g
     transform="matrix(0.63204427,0,0,0.63204427,-40.507199,122.73103)"
     id="g1572-2"
     inkscape:export-xdpi="89.893227"
     inkscape:export-ydpi="89.893227">
    <circle
       style="opacity:1;fill:#999999;fill-opacity:1;stroke:none;stroke-width:2.4000001;stroke-miterlimit:4;stroke-dasharray:none;stroke-dashoffset:0;stroke-opacity:1"
       id="circle1568-8"
       cx="286.81958"
       cy="-26.186251"
       r="19.038742" />
    <path
       id="path1570-9"
       style="fill:none;fill-rule:evenodd;stroke:#fffffa;stroke-width:2.4000001;stroke-linecap:butt;stroke-linejoin:round;stroke-miterlimit:4;stroke-dasharray:none;stroke-opacity:1"
       d="m 298.3453,-26.186251 h -21.90812 l 10.57633,10.576333 m 11.3883,-10.576333 h -21.90812 l 10.57633,-10.576333"
       inkscape:connector-curvature="0" />
  </g>
  <path
     id="path1670"
     style="fill:none;fill-rule:evenodd;stroke:#999999;stroke-width:1.86390209;stroke-linecap:butt;stroke-linejoin:round;stroke-miterlimit:4;stroke-dasharray:none;stroke-opacity:1"
     d="m 109.32202,111.74931 11.74387,-11.74388 m 0,11.74388 -11.74387,-11.74388"
     inkscape:connector-curvature="0"
     inkscape:export-xdpi="89.893227"
     inkscape:export-ydpi="89.893227" />
  <g
     id="g1683"
     transform="translate(0,-25.793533)"
     inkscape:export-xdpi="89.893227"
     inkscape:export-ydpi="89.893227">
    <circle
       r="12.033328"
       cy="131.84827"
       cx="89.653267"
       id="circle1658"
       style="opacity:1;fill:#999999;fill-opacity:1;stroke:none;stroke-width:1.51690626;stroke-miterlimit:4;stroke-dasharray:none;stroke-dashoffset:0;stroke-opacity:1" />
    <path
       id="path1679"
       style="fill:none;fill-rule:evenodd;stroke:#fffffa;stroke-width:1.86390209;stroke-linecap:butt;stroke-linejoin:round;stroke-miterlimit:4;stroke-dasharray:none;stroke-opacity:1"
       d="m 83.781332,137.7202 11.74387,-11.74387 m 0,11.74387 -11.74387,-11.74387"
       inkscape:connector-curvature="0" />
  </g>
  <g
     id="g1710"
     transform="translate(0,-17.740018)"
     inkscape:export-xdpi="89.893227"
     inkscape:export-ydpi="89.893227">
    <circle
       style="opacity:1;fill:#999999;fill-opacity:1;stroke:none;stroke-width:0.96934319;stroke-miterlimit:4;stroke-dasharray:none;stroke-dashoffset:0;stroke-opacity:1"
       id="circle1568-8-3"
       cx="258.73224"
       cy="103.00294"
       r="7.6896143" />
    <path
       sodipodi:nodetypes="cccc"
       id="path1570-9-6"
       style="fill:none;fill-rule:evenodd;stroke:#fffffa;stroke-width:1.66900003;stroke-linecap:round;stroke-linejoin:bevel;stroke-miterlimit:4;stroke-dasharray:none;stroke-opacity:1"
       d="m 258.73224,105.1502 4.2717,-4.2717 m -4.2717,4.24888 -4.27171,-4.27171"
       inkscape:connector-curvature="0" />
  </g>
  <g
     id="g1710-1"
     transform="translate(19.206716,-17.740018)"
     inkscape:export-xdpi="89.893227"
     inkscape:export-ydpi="89.893227">
    <circle
       style="opacity:1;fill:#913f00;fill-opacity:1;stroke:none;stroke-width:0.96934319;stroke-miterlimit:4;stroke-dasharray:none;stroke-dashoffset:0;stroke-opacity:1"
       id="circle1568-8-3-2"
       cx="258.73224"
       cy="103.00294"
       r="7.6896143" />
    <path
       sodipodi:nodetypes="cccc"
       id="path1570-9-6-9"
       style="fill:none;fill-rule:evenodd;stroke:#fffffa;stroke-width:1.66900003;stroke-linecap:round;stroke-linejoin:bevel;stroke-miterlimit:4;stroke-dasharray:none;stroke-opacity:1"
       d="m 258.73224,105.1502 4.2717,-4.2717 m -4.2717,4.24888 -4.27171,-4.27171"
       inkscape:connector-curvature="0" />
  </g>
  <g
     transform="translate(57.478352,-17.740018)"
     id="g1739"
     inkscape:export-xdpi="89.893227"
     inkscape:export-ydpi="89.893227">
    <circle
       r="7.6896143"
       cy="103.00294"
       cx="258.73224"
       id="circle1735"
       style="opacity:1;fill:#913f00;fill-opacity:1;stroke:none;stroke-width:0.96934319;stroke-miterlimit:4;stroke-dasharray:none;stroke-dashoffset:0;stroke-opacity:1" />
    <path
       inkscape:connector-curvature="0"
       d="m 258.73224,100.85567 4.2717,4.2717 m -4.2717,-4.24888 -4.27171,4.27171"
       style="fill:none;fill-rule:evenodd;stroke:#fffffa;stroke-width:1.66900003;stroke-linecap:round;stroke-linejoin:bevel;stroke-miterlimit:4;stroke-dasharray:none;stroke-opacity:1"
       id="path1737"
       sodipodi:nodetypes="cccc" />
  </g>
  <g
     id="g1745"
     transform="translate(38.225135,-17.740018)"
     inkscape:export-xdpi="89.893227"
     inkscape:export-ydpi="89.893227">
    <circle
       style="opacity:1;fill:#333333;fill-opacity:1;stroke:none;stroke-width:0.96934319;stroke-miterlimit:4;stroke-dasharray:none;stroke-dashoffset:0;stroke-opacity:1"
       id="circle1741"
       cx="258.73224"
       cy="103.00294"
       r="7.6896143" />
    <path
       sodipodi:nodetypes="cccc"
       id="path1743"
       style="fill:none;fill-rule:evenodd;stroke:#fffffa;stroke-width:1.66900003;stroke-linecap:round;stroke-linejoin:bevel;stroke-miterlimit:4;stroke-dasharray:none;stroke-opacity:1"
       d="m 258.73224,100.85567 4.2717,4.2717 m -4.2717,-4.24888 -4.27171,4.27171"
       inkscape:connector-curvature="0" />
  </g>
  <path
     inkscape:connector-curvature="0"
     d="m 236.12298,90.710097 8.30626,-8.455146 0.0719,8.091701 m -8.39956,0.385253 8.30625,-8.455148 -8.09171,0.07188"
     style="fill:none;fill-rule:evenodd;stroke:#913f00;stroke-width:1.29843104;stroke-linecap:butt;stroke-linejoin:round;stroke-miterlimit:4;stroke-dasharray:none;stroke-opacity:1"
     id="path1747"
     inkscape:export-xdpi="89.893227"
     inkscape:export-ydpi="89.893227" />
  <rect
     style="opacity:1;fill:#9e6324;fill-opacity:1;stroke:none;stroke-width:0.87765127;stroke-linecap:round;stroke-linejoin:bevel;stroke-miterlimit:4;stroke-dasharray:none;stroke-dashoffset:0;stroke-opacity:1;paint-order:markers stroke fill"
     id="rect1749"
     width="5.936687"
     height="5.9369998"
     x="233.64836"
     y="86.90271"
     inkscape:export-xdpi="89.893227"
     inkscape:export-ydpi="89.893227" />
  <path
     id="path1751"
     style="fill:none;fill-rule:evenodd;stroke:#913f00;stroke-width:1.29843104;stroke-linecap:butt;stroke-linejoin:round;stroke-miterlimit:4;stroke-dasharray:none;stroke-opacity:1"
     d="m 233.44737,118.21076 7.00056,-7.22791 0.0719,8.0917 m -7.07246,-0.86379 6.97915,-7.2061 -8.09171,0.0719"
     inkscape:connector-curvature="0"
     sodipodi:nodetypes="cccccc"
     inkscape:export-xdpi="89.893227"
     inkscape:export-ydpi="89.893227" />
  <rect
     y="114.69383"
     x="232.63351"
     height="3.9853764"
     width="3.9851663"
     id="rect1753"
     style="opacity:1;fill:#9e6324;fill-opacity:1;stroke:none;stroke-width:0.58914787;stroke-linecap:round;stroke-linejoin:bevel;stroke-miterlimit:4;stroke-dasharray:none;stroke-dashoffset:0;stroke-opacity:1;paint-order:markers stroke fill"
     inkscape:export-xdpi="89.893227"
     inkscape:export-ydpi="89.893227" />
  <g
     transform="translate(78.01212,45.876466)"
     id="g1759"
     inkscape:export-xdpi="89.893227"
     inkscape:export-ydpi="89.893227">
    <circle
       style="opacity:1;fill:#9e6324;fill-opacity:0.57142861;stroke:none;stroke-width:2.4000001;stroke-miterlimit:4;stroke-dasharray:none;stroke-dashoffset:0;stroke-opacity:1"
       id="circle1755"
       cx="286.81958"
       cy="-26.186251"
       r="19.038742" />
    <path
       id="path1757"
       style="fill:none;fill-rule:evenodd;stroke:#dce48d;stroke-width:2.4000001;stroke-linecap:butt;stroke-linejoin:round;stroke-miterlimit:4;stroke-dasharray:none;stroke-opacity:1"
       d="m 298.3453,-26.186251 h -21.90812 l 10.57633,10.576333 m 11.3883,-10.576333 h -21.90812 l 10.57633,-10.576333"
       inkscape:connector-curvature="0" />
  </g>
  <g
     id="g1765"
     transform="translate(78.01212,84.877853)"
     inkscape:export-xdpi="89.893227"
     inkscape:export-ydpi="89.893227">
    <circle
       r="19.038742"
       cy="-26.186251"
       cx="286.81958"
       id="circle1761"
       style="opacity:1;fill:#9e6324;fill-opacity:0.57142861;stroke:none;stroke-width:2.4000001;stroke-miterlimit:4;stroke-dasharray:none;stroke-dashoffset:0;stroke-opacity:1" />
    <path
       inkscape:connector-curvature="0"
       d="m 275.29386,-26.186251 h 21.90812 l -10.57633,10.576333 m -11.3883,-10.576333 h 21.90812 l -10.57633,-10.576333"
       style="fill:none;fill-rule:evenodd;stroke:#dce48d;stroke-width:2.4000001;stroke-linecap:butt;stroke-linejoin:round;stroke-miterlimit:4;stroke-dasharray:none;stroke-opacity:1"
       id="path1763" />
  </g>
  <path
     style="opacity:1;fill:#913f00;fill-opacity:1;stroke:#602900;stroke-width:1.66900003;stroke-linecap:round;stroke-linejoin:round;stroke-miterlimit:4;stroke-dasharray:none;stroke-dashoffset:0;stroke-opacity:1;paint-order:markers stroke fill"
     d="M 0.99894513,94.812614 H 27.541023 L 39.094634,106.05397 27.541023,117.29532 H 0.99894513 Z"
     id="rect1767"
     inkscape:connector-curvature="0"
     sodipodi:nodetypes="cccccc"
     inkscape:export-xdpi="89.893227"
     inkscape:export-ydpi="89.893227" />
  <path
     sodipodi:nodetypes="cccccc"
     inkscape:connector-curvature="0"
     id="path1770"
     d="M 75.47361,94.812614 H 61.978555 L 50.424944,106.05397 61.978555,117.29532 H 75.47361 Z"
     style="opacity:1;fill:#913f00;fill-opacity:1;stroke:#602900;stroke-width:1.66900003;stroke-linecap:round;stroke-linejoin:round;stroke-miterlimit:4;stroke-dasharray:none;stroke-dashoffset:0;stroke-opacity:1;paint-order:markers stroke fill"
     inkscape:export-xdpi="89.893227"
     inkscape:export-ydpi="89.893227" />
  <path
     sodipodi:nodetypes="cccccc"
     inkscape:connector-curvature="0"
     id="path1772"
     d="m 352.66651,92.305611 v -0.57185 l 15.24136,-11.553613 15.24135,11.553613 v 0.57185 z"
     style="opacity:1;fill:#333333;fill-opacity:1;stroke:#333333;stroke-width:1.66900003;stroke-linecap:round;stroke-linejoin:round;stroke-miterlimit:4;stroke-dasharray:none;stroke-dashoffset:0;stroke-opacity:1;paint-order:markers stroke fill"
     inkscape:export-xdpi="89.893227"
     inkscape:export-ydpi="89.893227" />
  <text
     xml:space="preserve"
     style="font-style:normal;font-weight:normal;font-size:13.91193867px;line-height:8.69496155px;font-family:'Bitstream Vera Sans';letter-spacing:0px;word-spacing:0px;fill:#000000;fill-opacity:1;stroke:none;stroke-width:0.34779847px;stroke-linecap:butt;stroke-linejoin:miter;stroke-opacity:1"
     x="70.091095"
     y="-69.000153"
     id="text2182"><tspan
       sodipodi:role="line"
       id="tspan2180"
       x="70.091095"
       y="-69.000153"
       style="stroke-width:0.34779847px">export the set of icons</tspan><tspan
       sodipodi:role="line"
       x="70.091095"
       y="-60.305191"
       id="tspan2184"
       style="stroke-width:0.34779847px">at width 432 px</tspan><tspan
       sodipodi:role="line"
       x="70.091095"
       y="-51.610229"
       style="stroke-width:0.34779847px"
       id="tspan2186">at height 111 px</tspan><tspan
       sodipodi:role="line"
       x="70.091095"
       y="-42.915268"
       style="stroke-width:0.34779847px"
       id="tspan2188">for the icons to be placed </tspan><tspan
       sodipodi:role="line"
       x="70.091095"
       y="-34.220306"
       style="stroke-width:0.34779847px"
       id="tspan2190">at correct locations with respect</tspan><tspan
       sodipodi:role="line"
       x="70.091095"
       y="-25.525345"
       style="stroke-width:0.34779847px"
       id="tspan2192">to the coordinates used in the style.css file.</tspan></text>
</svg>
