<?xml version="1.0" encoding="UTF-8" standalone="no"?>
<!-- Created with Inkscape (http://www.inkscape.org/) -->

<svg
   xmlns:dc="http://purl.org/dc/elements/1.1/"
   xmlns:cc="http://creativecommons.org/ns#"
   xmlns:rdf="http://www.w3.org/1999/02/22-rdf-syntax-ns#"
   xmlns:svg="http://www.w3.org/2000/svg"
   xmlns="http://www.w3.org/2000/svg"
   xmlns:sodipodi="http://sodipodi.sourceforge.net/DTD/sodipodi-0.dtd"
   xmlns:inkscape="http://www.inkscape.org/namespaces/inkscape"
   width="8.5019445mm"
   height="8.5019445mm"
   viewBox="0 0 8.5019443 8.5019443"
   version="1.1"
   id="svg8295"
   inkscape:version="0.92.4 (5da689c313, 2019-01-14)"
   sodipodi:docname="integrate-to-rt-mz-check-button.svg">
  <defs
     id="defs8289">
    <marker
       inkscape:isstock="true"
       style="overflow:visible"
       id="Arrow1Send"
       refX="0"
       refY="0"
       orient="auto"
       inkscape:stockid="Arrow1Send">
      <path
         inkscape:connector-curvature="0"
         transform="matrix(-0.2,0,0,-0.2,-1.2,0)"
         style="fill:#f7fc00;fill-opacity:1;fill-rule:evenodd;stroke:#f7fc00;stroke-width:1.00000003pt;stroke-opacity:1"
         d="M 0,0 5,-5 -12.5,0 5,5 Z"
         id="path1940" />
    </marker>
    <marker
       inkscape:isstock="true"
       style="overflow:visible"
       id="marker5261"
       refX="0"
       refY="0"
       orient="auto"
       inkscape:stockid="Arrow1Mend">
      <path
         inkscape:connector-curvature="0"
         transform="matrix(-0.4,0,0,-0.4,-4,0)"
         style="fill:#f7fc00;fill-opacity:1;fill-rule:evenodd;stroke:#f7fc00;stroke-width:1.00000003pt;stroke-opacity:1"
         d="M 0,0 5,-5 -12.5,0 5,5 Z"
         id="path5259" />
    </marker>
    <marker
       inkscape:isstock="true"
       style="overflow:visible"
       id="marker5261-3"
       refX="0"
       refY="0"
       orient="auto"
       inkscape:stockid="Arrow1Mend">
      <path
         inkscape:connector-curvature="0"
         transform="matrix(-0.4,0,0,-0.4,-4,0)"
         style="fill:#f7fc00;fill-opacity:1;fill-rule:evenodd;stroke:#f7fc00;stroke-width:1.00000003pt;stroke-opacity:1"
         d="M 0,0 5,-5 -12.5,0 5,5 Z"
         id="path5259-6" />
    </marker>
    <marker
       inkscape:isstock="true"
       style="overflow:visible"
       id="marker6076"
       refX="0"
       refY="0"
       orient="auto"
       inkscape:stockid="Arrow1Mend">
      <path
         inkscape:connector-curvature="0"
         transform="matrix(-0.4,0,0,-0.4,-4,0)"
         style="fill:#f7fc00;fill-opacity:1;fill-rule:evenodd;stroke:#f7fc00;stroke-width:1.00000003pt;stroke-opacity:1"
         d="M 0,0 5,-5 -12.5,0 5,5 Z"
         id="path6074" />
    </marker>
  </defs>
  <sodipodi:namedview
     id="base"
     pagecolor="#ffffff"
     bordercolor="#666666"
     borderopacity="1.0"
     inkscape:pageopacity="0.0"
     inkscape:pageshadow="2"
     inkscape:zoom="2.8982456"
     inkscape:cx="-45.777996"
     inkscape:cy="1.8171524"
     inkscape:document-units="mm"
     inkscape:current-layer="layer1"
     showgrid="false"
     fit-margin-top="0"
     fit-margin-left="0"
     fit-margin-right="0"
     fit-margin-bottom="0" />
  <metadata
     id="metadata8292">
    <rdf:RDF>
      <cc:Work
         rdf:about="">
        <dc:format>image/svg+xml</dc:format>
        <dc:type
           rdf:resource="http://purl.org/dc/dcmitype/StillImage" />
        <dc:title></dc:title>
      </cc:Work>
    </rdf:RDF>
  </metadata>
  <g
     inkscape:label="Layer 1"
     inkscape:groupmode="layer"
     id="layer1"
     transform="translate(-97.967618,-113.81103)">
    <g
       id="g6274"
       inkscape:export-xdpi="95.599998"
       inkscape:export-ydpi="95.599998"
       transform="matrix(0.26458333,0,0,0.26458333,18.783196,68.75706)">
      <rect
         inkscape:export-ydpi="95.599998"
         inkscape:export-xdpi="95.599998"
         y="170.3494"
         x="299.34637"
         height="32"
         width="32"
         id="rect6060"
         style="opacity:1;fill:#000000;fill-opacity:1;fill-rule:nonzero;stroke:#ffce00;stroke-width:0.13333333;stroke-linecap:round;stroke-linejoin:round;stroke-miterlimit:4;stroke-dasharray:none;stroke-dashoffset:0;stroke-opacity:1;paint-order:markers stroke fill" />
      <text
         inkscape:export-ydpi="95.599998"
         inkscape:export-xdpi="95.599998"
         id="text6064"
         y="182.41632"
         x="307.64062"
         style="font-style:normal;font-weight:normal;font-size:14.58878326px;line-height:9.11799145px;font-family:'Bitstream Vera Sans';letter-spacing:0px;word-spacing:0px;fill:#faff00;fill-opacity:0.98660715;stroke:#f7fc00;stroke-width:0.36471966px;stroke-linecap:butt;stroke-linejoin:miter;stroke-opacity:1"
         xml:space="preserve"><tspan
           style="fill:#faff00;fill-opacity:0.98660715;stroke:#f7fc00;stroke-width:0.36471966px;stroke-opacity:1"
           y="182.41632"
           x="307.64062"
           id="tspan6062"
           sodipodi:role="line">MZ</tspan></text>
      <path
         inkscape:export-ydpi="95.599998"
         inkscape:export-xdpi="95.599998"
         inkscape:connector-curvature="0"
         id="path6066"
         d="m 302.72723,198.37202 h 25.31754"
         style="fill:#f7fc00;fill-opacity:1;fill-rule:evenodd;stroke:#f7fc00;stroke-width:1.5;stroke-linecap:butt;stroke-linejoin:miter;stroke-miterlimit:4;stroke-dasharray:none;stroke-opacity:1;marker-end:url(#marker5261-3)"
         sodipodi:nodetypes="cc" />
      <text
         inkscape:export-ydpi="95.599998"
         inkscape:export-xdpi="95.599998"
         xml:space="preserve"
         style="font-style:normal;font-weight:normal;font-size:14.58878422px;line-height:9.11799049px;font-family:'Bitstream Vera Sans';letter-spacing:0px;word-spacing:0px;fill:#f7fc00;fill-opacity:1;stroke:#f7fc00;stroke-width:0.36471963px;stroke-linecap:butt;stroke-linejoin:miter;stroke-opacity:1"
         x="307.67654"
         y="194.35873"
         id="text6070"><tspan
           sodipodi:role="line"
           id="tspan6068"
           x="307.67654"
           y="194.35873"
           style="fill:#f7fc00;fill-opacity:1;stroke:#f7fc00;stroke-width:0.36471963px;stroke-opacity:1">RT</tspan></text>
      <path
         inkscape:export-ydpi="95.599998"
         inkscape:export-xdpi="95.599998"
         style="fill:#f7fc00;fill-opacity:1;fill-rule:evenodd;stroke:#f7fc00;stroke-width:1.5;stroke-linecap:butt;stroke-linejoin:miter;stroke-miterlimit:4;stroke-dasharray:none;stroke-opacity:1;marker-end:url(#marker6076)"
         d="M 303.40677,198.91449 V 173.8662"
         id="path6072"
         inkscape:connector-curvature="0"
         sodipodi:nodetypes="cc" />
    </g>
  </g>
</svg>
