<?xml version="1.0" encoding="UTF-8" standalone="no"?>
<!-- Created with Inkscape (http://www.inkscape.org/) -->

<svg
   xmlns:dc="http://purl.org/dc/elements/1.1/"
   xmlns:cc="http://creativecommons.org/ns#"
   xmlns:rdf="http://www.w3.org/1999/02/22-rdf-syntax-ns#"
   xmlns:svg="http://www.w3.org/2000/svg"
   xmlns="http://www.w3.org/2000/svg"
   xmlns:xlink="http://www.w3.org/1999/xlink"
   xmlns:sodipodi="http://sodipodi.sourceforge.net/DTD/sodipodi-0.dtd"
   xmlns:inkscape="http://www.inkscape.org/namespaces/inkscape"
   width="14.36865mm"
   height="14.08598mm"
   viewBox="0 0 14.36865 14.08598"
   version="1.1"
   id="svg8295"
   inkscape:version="0.92.4 (5da689c313, 2019-01-14)"
   sodipodi:docname="push-pin-green-unpressed.svg">
  <defs
     id="defs8289">
    <linearGradient
       y2="112.61"
       x2="67.179001"
       y1="108.61"
       x1="21.367001"
       gradientTransform="matrix(0.56772294,0.56772294,-0.77635639,0.77635639,214.77098,-93.511657)"
       gradientUnits="userSpaceOnUse"
       id="linearGradient972"
       xlink:href="#linearGradient4511"
       inkscape:collect="always" />
    <linearGradient
       inkscape:collect="always"
       x1="21.367001"
       y1="108.61"
       gradientTransform="matrix(1.4384,1.4384,-1.967,1.967,362.74625,-207.74937)"
       x2="67.179001"
       gradientUnits="userSpaceOnUse"
       y2="112.61"
       id="linearGradient4511">
      <stop
         offset="0"
         style="stop-color:#999999"
         id="stop4507" />
      <stop
         offset=".38633"
         style="stop-color:#e6e6e6"
         id="stop4513" />
      <stop
         offset=".56350"
         style="stop-color:#989898"
         id="stop4517" />
      <stop
         offset=".71704"
         style="stop-color:#333333"
         id="stop4515" />
      <stop
         offset="1"
         style="stop-color:#999999"
         id="stop4509" />
    </linearGradient>
  </defs>
  <sodipodi:namedview
     id="base"
     pagecolor="#ffffff"
     bordercolor="#666666"
     borderopacity="1.0"
     inkscape:pageopacity="0.0"
     inkscape:pageshadow="2"
     inkscape:zoom="2.8982456"
     inkscape:cx="28.297428"
     inkscape:cy="23.37462"
     inkscape:document-units="mm"
     inkscape:current-layer="layer1"
     showgrid="false"
     fit-margin-top="0"
     fit-margin-left="0"
     fit-margin-right="0"
     fit-margin-bottom="0" />
  <metadata
     id="metadata8292">
    <rdf:RDF>
      <cc:Work
         rdf:about="">
        <dc:format>image/svg+xml</dc:format>
        <dc:type
           rdf:resource="http://purl.org/dc/dcmitype/StillImage" />
        <dc:title></dc:title>
      </cc:Work>
    </rdf:RDF>
  </metadata>
  <g
     inkscape:label="Layer 1"
     inkscape:groupmode="layer"
     id="layer1"
     transform="translate(-69.897609,-113.93074)">
    <g
       id="g308"
       transform="matrix(0.26458333,0,0,0.26458333,31.661907,116.56028)">
      <path
         id="path962"
         style="fill:url(#linearGradient972);stroke-width:0.3946906"
         inkscape:connector-curvature="0"
         d="M 176.14734,4.2887236 144.51289,43.299944 184.49505,12.829834 Z"
         inkscape:export-xdpi="11.423403"
         inkscape:export-ydpi="11.423403" />
      <ellipse
         id="ellipse966"
         style="fill:#58d43a;fill-opacity:1;fill-rule:evenodd;stroke:#000000;stroke-width:0.4108851;stroke-opacity:1"
         transform="rotate(45)"
         inkscape:export-xdpi="11.423403"
         inkscape:export-ydpi="11.423403"
         cx="133.56046"
         cy="-102.86859"
         rx="16.697201"
         ry="8.924366" />
      <path
         id="path968"
         sodipodi:nodetypes="ccccscscc"
         style="fill:#58d43a;fill-opacity:1;stroke:#000000;stroke-width:0.3946906;stroke-opacity:1"
         inkscape:connector-curvature="0"
         d="m 162.50565,14.104684 16.86198,-21.0764804 c 0,0 -1.97598,1.60714 -0.4479,5.6646 0.92212,2.29212996 1.71252,3.92563 4.66327,6.98168 0,0 2.91455,3.07263 6.55739,4.4150104 1.97353,0.72722 4.60762,1.28168 6.08889,-0.1995604 L 175.15201,26.751514 c 0,0 -4.21529,4.2153 -10.53863,-2.10769 -6.32334,-6.32334 -2.10773,-10.53864 -2.10773,-10.53864 z"
         inkscape:export-xdpi="11.423403"
         inkscape:export-ydpi="11.423403" />
      <ellipse
         id="ellipse970"
         style="fill:#58d43a;fill-opacity:1;fill-rule:evenodd;stroke:#000000;stroke-width:0.33197007;stroke-opacity:1"
         transform="rotate(45)"
         inkscape:export-xdpi="11.423403"
         inkscape:export-ydpi="11.423403"
         cx="133.55917"
         cy="-132.08037"
         rx="13.490318"
         ry="7.2103424" />
    </g>
  </g>
</svg>
