<?xml version="1.0" encoding="UTF-8" standalone="no"?>
<!-- Created with Inkscape (http://www.inkscape.org/) -->

<svg
   xmlns:dc="http://purl.org/dc/elements/1.1/"
   xmlns:cc="http://creativecommons.org/ns#"
   xmlns:rdf="http://www.w3.org/1999/02/22-rdf-syntax-ns#"
   xmlns:svg="http://www.w3.org/2000/svg"
   xmlns="http://www.w3.org/2000/svg"
   xmlns:sodipodi="http://sodipodi.sourceforge.net/DTD/sodipodi-0.dtd"
   xmlns:inkscape="http://www.inkscape.org/namespaces/inkscape"
   width="744.09448819"
   height="1052.3622047"
   id="svg2"
   sodipodi:version="0.32"
   inkscape:version="0.91 r13725"
   sodipodi:docname="addresses.svg"
   version="1.1">
  <defs
     id="defs4" />
  <sodipodi:namedview
     id="base"
     pagecolor="white"
     bordercolor="#666666"
     borderopacity="1.0"
     gridtolerance="10000"
     guidetolerance="10"
     objecttolerance="10"
     inkscape:pageopacity="1"
     inkscape:pageshadow="2"
     inkscape:zoom="2.0969348"
     inkscape:cx="142.41222"
     inkscape:cy="751.67946"
     inkscape:document-units="px"
     inkscape:current-layer="layer1"
     inkscape:window-width="849"
     inkscape:window-height="579"
     inkscape:window-x="0"
     inkscape:window-y="31"
     showgrid="false" />
  <metadata
     id="metadata7">
    <rdf:RDF>
      <cc:Work
         rdf:about="">
        <dc:format>image/svg+xml</dc:format>
        <dc:type
           rdf:resource="http://purl.org/dc/dcmitype/StillImage" />
      </cc:Work>
    </rdf:RDF>
  </metadata>
  <g
     inkscape:label="Layer 1"
     inkscape:groupmode="layer"
     id="layer1">
    <text
       xml:space="preserve"
       style="font-size:12px;font-style:normal;font-weight:normal;fill:black;fill-opacity:1;stroke:none;stroke-width:1px;stroke-linecap:butt;stroke-linejoin:miter;stroke-opacity:1;font-family:Bitstream Vera Sans"
       x="111.42857"
       y="300.93362"
       id="text1872"
       inkscape:export-filename="./addresses.png"
       inkscape:export-xdpi="90.583839"
       inkscape:export-ydpi="90.583839"><tspan
         sodipodi:role="line"
         id="tspan1874"
         x="111.42857"
         y="300.93362">msxpertsuite-maintainer@msxpertsuite.org</tspan></text>
    <text
       id="text1876"
       y="316.93362"
       x="111.42857"
       style="font-size:12px;font-style:normal;font-weight:normal;fill:black;fill-opacity:1;stroke:none;stroke-width:1px;stroke-linecap:butt;stroke-linejoin:miter;stroke-opacity:1;font-family:Bitstream Vera Sans"
       xml:space="preserve"
       inkscape:export-filename="./addresses.png"
       inkscape:export-xdpi="90.583839"
       inkscape:export-ydpi="90.583839"><tspan
         y="316.93362"
         x="111.42857"
         id="tspan1878"
         sodipodi:role="line">msxpertsuite-bugs@msxpertsuite.org</tspan></text>
    <text
       xml:space="preserve"
       style="font-size:12px;font-style:normal;font-weight:normal;fill:black;fill-opacity:1;stroke:none;stroke-width:1px;stroke-linecap:butt;stroke-linejoin:miter;stroke-opacity:1;font-family:Bitstream Vera Sans"
       x="111.42857"
       y="332.93362"
       id="text1880"
       inkscape:export-filename="./addresses.png"
       inkscape:export-xdpi="90.583839"
       inkscape:export-ydpi="90.583839"><tspan
         sodipodi:role="line"
         id="tspan1882"
         x="111.42857"
         y="332.93362">msxpertsuite-webmaster@msxpertsuite.org</tspan></text>
    <text
       id="text1884"
       y="348.93362"
       x="111.42857"
       style="font-size:12px;font-style:normal;font-weight:normal;fill:black;fill-opacity:1;stroke:none;stroke-width:1px;stroke-linecap:butt;stroke-linejoin:miter;stroke-opacity:1;font-family:Bitstream Vera Sans"
       xml:space="preserve"
       inkscape:export-filename="./addresses.png"
       inkscape:export-xdpi="90.583839"
       inkscape:export-ydpi="90.583839"><tspan
         y="348.93362"
         x="111.42857"
         id="tspan1886"
         sodipodi:role="line">msxpertsuite-request@msxpertsuite.org</tspan></text>
  </g>
</svg>
