<?xml version="1.0" encoding="UTF-8" standalone="no"?>
<!-- Created with Inkscape (http://www.inkscape.org/) -->

<svg
   xmlns:dc="http://purl.org/dc/elements/1.1/"
   xmlns:cc="http://creativecommons.org/ns#"
   xmlns:rdf="http://www.w3.org/1999/02/22-rdf-syntax-ns#"
   xmlns:svg="http://www.w3.org/2000/svg"
   xmlns="http://www.w3.org/2000/svg"
   xmlns:sodipodi="http://sodipodi.sourceforge.net/DTD/sodipodi-0.dtd"
   xmlns:inkscape="http://www.inkscape.org/namespaces/inkscape"
   width="210mm"
   height="297mm"
   viewBox="0 0 210 297"
   version="1.1"
   id="svg1537"
   inkscape:version="0.92.4 (5da689c313, 2019-01-14)"
   sodipodi:docname="erase-trace-and-create-new-one.svg">
  <defs
     id="defs1531" />
  <sodipodi:namedview
     id="base"
     pagecolor="#ffffff"
     bordercolor="#666666"
     borderopacity="1.0"
     inkscape:pageopacity="0.0"
     inkscape:pageshadow="2"
     inkscape:zoom="0.35"
     inkscape:cx="350"
     inkscape:cy="560"
     inkscape:document-units="mm"
     inkscape:current-layer="layer1"
     showgrid="false" />
  <metadata
     id="metadata1534">
    <rdf:RDF>
      <cc:Work
         rdf:about="">
        <dc:format>image/svg+xml</dc:format>
        <dc:type
           rdf:resource="http://purl.org/dc/dcmitype/StillImage" />
        <dc:title></dc:title>
      </cc:Work>
    </rdf:RDF>
  </metadata>
  <g
     inkscape:label="Layer 1"
     inkscape:groupmode="layer"
     id="layer1">
    <g
       id="g1382"
       inkscape:export-xdpi="47.800789"
       inkscape:export-ydpi="47.800789"
       transform="matrix(0.26458333,0,0,0.26458333,-2.040864,-36.890663)">
      <rect
         inkscape:export-ydpi="47.800789"
         inkscape:export-xdpi="47.800789"
         y="231.66325"
         x="203.14207"
         height="32"
         width="32"
         id="rect882-6"
         style="opacity:1;fill:#ffffff;fill-opacity:0;fill-rule:nonzero;stroke:#000000;stroke-width:0.13333333;stroke-linecap:round;stroke-linejoin:round;stroke-miterlimit:4;stroke-dasharray:none;stroke-dashoffset:0;stroke-opacity:1;paint-order:markers stroke fill" />
      <path
         inkscape:export-ydpi="47.800789"
         inkscape:export-xdpi="47.800789"
         sodipodi:nodetypes="ccccccccc"
         inkscape:connector-curvature="0"
         id="path886-1"
         d="m 206.41525,261.98672 3.00114,-24.07044 3.00115,24.07044 h 3.00115 l 3.00114,-19.1759 3.00114,19.1759 h 3.00115 l 3.00114,-12.73923 3.00115,13.49415"
         style="fill:none;fill-rule:evenodd;stroke:#ff0606;stroke-width:2;stroke-linecap:butt;stroke-linejoin:miter;stroke-miterlimit:4;stroke-dasharray:none;stroke-opacity:1" />
      <g
         id="g1368">
        <rect
           style="opacity:1;fill:#000000;fill-opacity:1;fill-rule:nonzero;stroke:#000000;stroke-width:0.66314644;stroke-linecap:round;stroke-linejoin:miter;stroke-miterlimit:1.5;stroke-dasharray:none;stroke-dashoffset:0;stroke-opacity:0.99553576;paint-order:markers stroke fill"
           id="rect1186"
           width="10.931095"
           height="5.3103428"
           x="322.55121"
           y="43.17791"
           transform="rotate(38.975327)" />
        <rect
           style="opacity:1;fill:#000000;fill-opacity:1;fill-rule:nonzero;stroke:#000000;stroke-width:0.66314644;stroke-linecap:round;stroke-linejoin:miter;stroke-miterlimit:1;stroke-dasharray:none;stroke-dashoffset:0;stroke-opacity:0.99553576;paint-order:markers stroke fill"
           id="rect1188"
           width="1.244965"
           height="6.3137507"
           x="327.43475"
           y="36.186508"
           transform="rotate(39.034993)" />
        <path
           style="fill:none;fill-rule:evenodd;stroke:#000000;stroke-width:1.5;stroke-linecap:butt;stroke-linejoin:miter;stroke-miterlimit:4;stroke-dasharray:none;stroke-opacity:1"
           d="m 220.39179,241.10948 -3.13264,3.83989"
           id="path1190"
           inkscape:connector-curvature="0" />
        <path
           inkscape:connector-curvature="0"
           id="path1196"
           d="m 223.00923,242.84283 -3.13264,3.83988"
           style="fill:none;fill-rule:evenodd;stroke:#000000;stroke-width:1.5;stroke-linecap:butt;stroke-linejoin:miter;stroke-miterlimit:4;stroke-dasharray:none;stroke-opacity:1" />
        <path
           style="fill:none;fill-rule:evenodd;stroke:#000000;stroke-width:1.5;stroke-linecap:butt;stroke-linejoin:miter;stroke-miterlimit:4;stroke-dasharray:none;stroke-opacity:1"
           d="m 225.62668,245.17649 -3.13265,3.83988"
           id="path1202"
           inkscape:connector-curvature="0" />
        <path
           inkscape:connector-curvature="0"
           id="path1208"
           d="m 228.24412,247.41006 -3.13264,3.83989"
           style="fill:none;fill-rule:evenodd;stroke:#000000;stroke-width:1.5;stroke-linecap:butt;stroke-linejoin:miter;stroke-miterlimit:4;stroke-dasharray:none;stroke-opacity:1" />
      </g>
    </g>
  </g>
</svg>
