<?xml version="1.0" encoding="UTF-8" standalone="no"?>
<!-- Created with Inkscape (http://www.inkscape.org/) -->

<svg
   xmlns:dc="http://purl.org/dc/elements/1.1/"
   xmlns:cc="http://creativecommons.org/ns#"
   xmlns:rdf="http://www.w3.org/1999/02/22-rdf-syntax-ns#"
   xmlns:svg="http://www.w3.org/2000/svg"
   xmlns="http://www.w3.org/2000/svg"
   xmlns:xlink="http://www.w3.org/1999/xlink"
   xmlns:sodipodi="http://sodipodi.sourceforge.net/DTD/sodipodi-0.dtd"
   xmlns:inkscape="http://www.inkscape.org/namespaces/inkscape"
   width="793.70081"
   height="1122.5197"
   id="svg2"
   sodipodi:version="0.32"
   inkscape:version="0.92.1 r15371"
   sodipodi:docname="logo.svg"
   version="1.1">
  <defs
     id="defs4" />
  <sodipodi:namedview
     id="base"
     pagecolor="#ffffff"
     bordercolor="#666666"
     borderopacity="1.0"
     gridtolerance="10000"
     guidetolerance="10"
     objecttolerance="10"
     inkscape:pageopacity="0.0"
     inkscape:pageshadow="2"
     inkscape:zoom="0.33231538"
     inkscape:cx="485.11992"
     inkscape:cy="253.42788"
     inkscape:document-units="px"
     inkscape:current-layer="layer5"
     inkscape:window-width="1359"
     inkscape:window-height="1096"
     inkscape:window-x="0"
     inkscape:window-y="31"
     showguides="true"
     inkscape:guide-bbox="true"
     showgrid="false">
    <sodipodi:guide
       position="1420.3375,1206.685"
       orientation="0,1"
       id="guide4513"
       inkscape:locked="false" />
  </sodipodi:namedview>
  <metadata
     id="metadata7">
    <rdf:RDF>
      <cc:Work
         rdf:about="">
        <dc:format>image/svg+xml</dc:format>
        <dc:type
           rdf:resource="http://purl.org/dc/dcmitype/StillImage" />
      </cc:Work>
    </rdf:RDF>
  </metadata>
  <g
     inkscape:groupmode="layer"
     id="layer5"
     inkscape:label="background">
    <rect
       style="display:inline;opacity:1;fill:#0000ff;fill-opacity:1;stroke:none;stroke-width:1.06666672;stroke-opacity:1"
       id="rect3006"
       width="1460.1039"
       height="1477.7664"
       x="-278.18512"
       y="-177.14944"
       ry="730.05194" />
    <text
       xml:space="preserve"
       style="font-style:normal;font-variant:normal;font-weight:normal;font-stretch:normal;font-size:12.79999924px;line-height:0%;font-family:'Domestic Manners';text-align:start;writing-mode:lr-tb;text-anchor:start;fill:#fffc00;fill-opacity:1;stroke:none;stroke-width:1.0666666px;stroke-linecap:butt;stroke-linejoin:miter;stroke-opacity:1"
       x="-500.8252"
       y="105.17337"
       id="text3038"
       transform="matrix(0.57443404,-0.81833805,0.99450307,0.32407602,0,0)"><tspan
         sodipodi:role="line"
         id="tspan3065"
         x="-500.8252"
         y="105.17337"
         style="font-size:117.98165131px;line-height:1;stroke-width:1.0666666px">Simulating</tspan></text>
    <text
       transform="matrix(0.61510824,0.78822136,-0.60016385,0.85665904,0,0)"
       id="text3049"
       y="-604.41229"
       x="643.97461"
       style="font-style:normal;font-variant:normal;font-weight:normal;font-stretch:normal;font-size:12.80000019px;line-height:0%;font-family:'Domestic Manners';text-align:start;writing-mode:lr-tb;text-anchor:start;fill:#fffc00;fill-opacity:1;stroke:none;stroke-width:1.0666666px;stroke-linecap:butt;stroke-linejoin:miter;stroke-opacity:1"
       xml:space="preserve"><tspan
         sodipodi:role="line"
         id="tspan3063"
         x="643.97461"
         y="-604.41229"
         style="font-size:117.98243713px;line-height:1;stroke-width:1.0666666px">Analyzing</tspan></text>
    <text
       xml:space="preserve"
       style="font-style:normal;font-variant:normal;font-weight:normal;font-stretch:normal;font-size:12.80000019px;line-height:0%;font-family:'Domestic Manners';text-align:start;writing-mode:lr-tb;text-anchor:start;fill:#fffc00;fill-opacity:1;stroke:none;stroke-width:1.06666672px;stroke-linecap:butt;stroke-linejoin:miter;stroke-opacity:1"
       x="778.54297"
       y="1095.6971"
       id="text3059"><tspan
         sodipodi:role="line"
         id="tspan3374"
         x="778.54297"
         y="1095.6971"
         style="font-size:56.96623611px;line-height:1.25;stroke-width:1.06666672px"> TM</tspan></text>
    <text
       xml:space="preserve"
       style="font-style:normal;font-variant:normal;font-weight:normal;font-stretch:normal;font-size:12.79999828px;line-height:0%;font-family:'Domestic Manners';text-align:start;writing-mode:lr-tb;text-anchor:start;fill:#fffc00;fill-opacity:1;stroke:none;stroke-width:1.0666666px;stroke-linecap:butt;stroke-linejoin:miter;stroke-opacity:1"
       x="384.07733"
       y="-102.84057"
       id="text3067"
       transform="matrix(0.9973741,0.06997257,0.23537702,1.0191461,0,0)"><tspan
         sodipodi:role="line"
         id="tspan3071"
         x="384.07733"
         y="-102.84057"
         style="font-size:117.98241425px;line-height:1;stroke-width:1.0666666px">and</tspan></text>
    <text
       xml:space="preserve"
       style="font-style:normal;font-variant:normal;font-weight:normal;font-stretch:normal;font-size:12.79999733px;line-height:0%;font-family:'Domestic Manners';text-align:start;writing-mode:lr-tb;text-anchor:start;fill:#fffc00;fill-opacity:1;stroke:none;stroke-width:1.06666636px;stroke-linecap:butt;stroke-linejoin:miter;stroke-opacity:1"
       x="-323.05182"
       y="1172.014"
       id="text3073"
       transform="matrix(0.99972325,0.01429157,0.29179708,1.0044482,0,0)"><tspan
         sodipodi:role="line"
         id="tspan3077"
         x="-323.05182"
         y="1172.014"
         style="font-size:117.98236084px;line-height:1;stroke-width:1.06666636px">Flying Species</tspan></text>
    <g
       id="g3302">
      <path
         style="font-style:normal;font-variant:normal;font-weight:normal;font-stretch:normal;font-size:110.60848999px;line-height:100%;font-family:'Domestic Manners';text-align:start;writing-mode:lr-tb;text-anchor:start;opacity:0.09090899;fill:#fffc00;fill-opacity:1;stroke:none;stroke-width:1.06666636px;stroke-linecap:butt;stroke-linejoin:miter;stroke-opacity:1"
         d=""
         id="text3314"
         inkscape:connector-curvature="0" />
    </g>
  </g>
  <g
     inkscape:groupmode="layer"
     id="layer2"
     inkscape:label="model"
     sodipodi:insensitive="true"
     style="display:none">
    <image
       sodipodi:absref="/home/rusconi/devel/msxpertsuite/development/images/massxpert-icon-original.png"
       xlink:href="massxpert-icon-original.png"
       width="1136"
       height="1136"
       id="image2002"
       x="-130.28522"
       y="-27.427795" />
  </g>
  <g
     inkscape:groupmode="layer"
     id="layer3"
     inkscape:label="skin"
     style="display:inline"
     sodipodi:insensitive="true">
    <path
       id="path2952"
       style="fill:#00b500;fill-opacity:1;stroke:none;stroke-width:1.06666672;stroke-opacity:1"
       d="m 447.12201,49.407809 c 67.95244,-83.280596 150.84533,-84.268746 213.52076,-15.25773 77.17906,84.980751 53.81483,293.353731 111.17876,319.983711 177.52988,82.41449 218.70888,177.43908 234.74267,280.99307 46.0334,364.66692 -324.38154,460.26834 -561.14063,460.26834 -236.75909,0 -607.17409,-95.60142 -561.14062,-460.26834 16.033786,-103.55399 57.212769,-198.57858 234.74266,-280.99307 57.36393,-26.62998 33.99969,-235.00296 111.17875,-319.983711 62.67544,-69.011016 145.56832,-68.022866 213.52077,15.25773"
       sodipodi:nodetypes="csscccssc"
       inkscape:connector-curvature="0" />
  </g>
  <g
     inkscape:label="eyes-tongue"
     inkscape:groupmode="layer"
     id="layer1"
     style="display:inline"
     sodipodi:insensitive="true">
    <g
       id="g2980">
      <path
         sodipodi:open="true"
         sodipodi:end="6.2811953"
         sodipodi:start="0"
         d="M 403.42228,173.40602 A 84.658302,143.91913 0 0 1 318.80609,317.32513 84.658302,143.91913 0 0 1 234.10572,173.54922 84.658302,143.91913 0 0 1 318.63762,29.487053 84.658302,143.91913 0 0 1 403.42211,173.11962"
         sodipodi:ry="143.91913"
         sodipodi:rx="84.658302"
         sodipodi:cy="173.40602"
         sodipodi:cx="318.76398"
         id="path2904"
         style="fill:#ffffff;fill-opacity:1;stroke-width:1.06666672"
         sodipodi:type="arc" />
      <g
         transform="translate(206.79893,97.879947)"
         id="g2976">
        <ellipse
           style="fill:#000000;fill-opacity:1;stroke-width:1.06666672"
           id="path2005"
           cx="112.38741"
           cy="32.556831"
           rx="51.108532"
           ry="64.277603" />
        <ellipse
           style="fill:#ffffff;fill-opacity:1;stroke-width:1.06666672"
           id="path2892"
           cx="132.14104"
           cy="11.549032"
           rx="16.931662"
           ry="22.575548" />
      </g>
    </g>
    <g
       id="g2992">
      <path
         sodipodi:type="arc"
         style="fill:#ffffff;fill-opacity:1;stroke-width:1.06666672"
         id="path2908"
         sodipodi:cx="570.03259"
         sodipodi:cy="180.9312"
         sodipodi:rx="84.658302"
         sodipodi:ry="143.91913"
         d="M 654.6909,180.9312 A 84.658302,143.91913 0 0 1 570.07471,324.85031 84.658302,143.91913 0 0 1 485.37433,181.0744 84.658302,143.91913 0 0 1 569.90624,37.01223 84.658302,143.91913 0 0 1 654.69073,180.6448"
         sodipodi:start="0"
         sodipodi:end="6.2811953"
         sodipodi:open="true" />
      <g
         style="opacity:1"
         transform="translate(584.33589,-60.347029)"
         id="g2988">
        <ellipse
           id="path2900"
           style="fill:#000000;fill-opacity:1;stroke-width:1.06666672"
           cx="-26.096436"
           cy="199.26263"
           rx="51.108532"
           ry="64.277603" />
        <ellipse
           id="path2902"
           style="fill:#ffffff;fill-opacity:1;stroke-width:1.06666672"
           cx="-6.3428092"
           cy="178.25484"
           rx="16.931662"
           ry="22.575548" />
      </g>
    </g>
    <path
       style="fill:#cc0000;fill-opacity:1;fill-rule:evenodd;stroke:none;stroke-width:1.06666672px;stroke-linecap:butt;stroke-linejoin:miter;stroke-opacity:1"
       d="m 345.57225,720.95423 c 22.21675,-26.34477 151.71955,-25.81509 172.6704,0.70623 20.95084,26.52132 -45.2756,107.25091 -88.4432,107.07436 -43.1676,-0.17656 -106.44396,-81.43582 -84.2272,-107.78059 z"
       id="path2933"
       sodipodi:nodetypes="czzz"
       inkscape:connector-curvature="0" />
  </g>
  <g
     inkscape:groupmode="layer"
     id="layer4"
     inkscape:label="mouth"
     sodipodi:insensitive="true">
    <path
       id="path2999"
       style="fill:#004a00;fill-opacity:0.59459462;fill-rule:evenodd;stroke:none;stroke-width:1.06666672px;stroke-linecap:butt;stroke-linejoin:miter;stroke-opacity:1"
       d="m 101.55964,576.4526 c 0,0 139.09255,59.27075 331.17275,0 180.00666,65.92867 344.41965,1.64641 344.41965,1.64641 0,0 -58.13921,155.17414 -141.30037,254.37033 -83.16115,99.19621 -198.70365,160.52497 -198.70365,160.52497 0,0 -120.69407,-53.09672 -198.70365,-160.52497 C 159.71231,724.04615 101.55964,576.4526 101.55964,576.4526 Z m 70.54194,41.03917 c 0,0 110.04588,47.59162 262.01399,0 142.41589,52.93762 272.49453,1.32199 272.49453,1.32199 0,0 -45.998,124.59754 -111.79263,204.24739 -65.79462,79.64988 -157.20839,128.894 -157.20839,128.894 0,0 -95.48954,-42.63417 -157.20839,-128.894 C 218.11024,736.00243 172.10158,617.49177 172.10158,617.49177 Z"
       inkscape:connector-curvature="0" />
  </g>
</svg>
